36.96.0.0	36.223.255.255	8388608
59.191.240.0	60.31.255.255	6295552
110.240.0.0	111.63.255.255	5242880
222.16.0.0	222.95.255.255	5242880
183.0.0.0	183.71.255.255	4718592
183.184.0.0	183.255.255.255	4718592
112.0.0.0	112.67.255.255	4456448
113.62.0.0	113.129.255.255	4456448
117.124.0.0	117.191.255.255	4456448
116.128.0.0	116.192.255.255	4259840
39.128.0.0	39.191.255.255	4194304
61.128.0.0	61.191.255.255	4194304
120.192.0.0	120.255.255.255	4194304
182.96.0.0	182.151.255.255	3670016
222.168.0.0	222.223.255.255	3670016
223.64.0.0	223.117.255.255	3538944
59.32.0.0	59.83.255.255	3407872
115.190.0.0	115.239.255.255	3276800
175.46.0.0	175.95.255.255	3276800
110.176.0.0	110.223.255.255	3145728
114.208.0.0	114.255.255.255	3145728
220.160.0.0	220.207.255.255	3145728
27.184.0.0	27.227.255.255	2883584
218.56.0.0	218.99.255.255	2883584
183.128.0.0	183.170.255.255	2818048
111.126.0.0	111.167.255.255	2752512
112.224.0.0	113.9.255.255	2752512
221.199.224.0	221.239.255.255	2629632
106.11.0.0	106.50.255.255	2621440
42.202.0.0	42.240.255.255	2555904
119.112.0.0	119.147.255.255	2359296
121.8.0.0	121.43.255.255	2359296
125.64.0.0	125.98.255.255	2293760
123.64.0.0	123.98.127.255	2260992
58.30.0.0	58.63.255.255	2228224
101.16.0.0	101.49.255.255	2228224
110.94.0.0	110.127.255.255	2228224
113.218.0.0	113.251.255.255	2228224
122.64.0.0	122.97.255.255	2228224
180.95.128.0	180.127.255.255	2129920
39.64.0.0	39.95.255.255	2097152
49.64.0.0	49.95.255.255	2097152
58.192.0.0	58.223.255.255	2097152
60.160.0.0	60.191.255.255	2097152
123.144.0.0	123.175.255.255	2097152
211.136.0.0	211.167.255.255	2097152
218.0.0.0	218.31.255.255	2097152
219.128.0.0	219.159.255.255	2097152
42.156.36.0	42.187.123.255	2054144
114.80.0.0	114.107.255.255	1835008
175.0.0.0	175.27.255.255	1835008
202.95.252.0	202.122.7.255	1707008
14.103.0.0	14.127.255.255	1638400
117.21.0.0	117.45.255.255	1638400
27.8.0.0	27.31.255.255	1572864
60.200.0.0	60.223.255.255	1572864
111.192.0.0	111.215.255.255	1572864
112.80.0.0	112.103.255.255	1572864
122.224.0.0	122.247.255.255	1572864
123.112.0.0	123.135.255.255	1572864
125.104.0.0	125.127.255.255	1572864
171.104.0.0	171.127.255.255	1572864
180.152.0.0	180.175.255.255	1572864
211.80.0.0	211.103.255.255	1572864
219.216.0.0	219.239.255.255	1572864
210.25.0.0	210.47.255.255	1507328
117.74.128.0	117.95.255.255	1409024
36.16.0.0	36.37.31.255	1384448
124.220.0.0	124.240.191.255	1359872
106.108.0.0	106.127.255.255	1310720
115.44.0.0	115.63.255.255	1310720
120.30.0.0	120.49.255.255	1310720
139.196.0.0	139.215.255.255	1310720
223.144.0.0	223.163.255.255	1310720
119.252.240.0	120.15.255.255	1249280
125.31.192.0	125.47.255.255	1064960
101.80.0.0	101.96.11.255	1051648
1.80.0.0	1.95.255.255	1048576
14.16.0.0	14.31.255.255	1048576
14.144.0.0	14.159.255.255	1048576
14.208.0.0	14.223.255.255	1048576
42.128.0.0	42.143.255.255	1048576
58.240.0.0	58.255.255.255	1048576
101.144.0.0	101.159.255.255	1048576
106.80.0.0	106.95.255.255	1048576
106.224.0.0	106.239.255.255	1048576
116.16.0.0	116.31.255.255	1048576
116.224.0.0	116.239.255.255	1048576
119.176.0.0	119.191.255.255	1048576
121.224.0.0	121.239.255.255	1048576
171.80.0.0	171.95.255.255	1048576
171.208.0.0	171.223.255.255	1048576
175.160.0.0	175.175.255.255	1048576
182.32.0.0	182.47.255.255	1048576
202.192.0.0	202.207.255.255	1048576
218.192.0.0	218.207.255.255	1048576
222.128.0.0	222.143.255.255	1048576
223.0.0.0	223.15.255.255	1048576
117.59.0.0	117.73.255.255	983040
118.112.0.0	118.126.255.255	983040
123.177.0.0	123.191.255.255	983040
118.244.0.0	119.2.31.255	925696
101.64.0.0	101.78.3.255	918528
42.242.0.0	42.255.255.255	917504
101.236.0.0	101.249.255.255	917504
171.34.0.0	171.47.255.255	917504
124.67.0.0	124.79.255.255	851968
182.80.0.0	182.92.255.255	851968
221.0.0.0	221.12.191.255	835584
42.83.88.0	42.95.255.255	829440
1.188.0.0	1.199.255.255	786432
27.36.0.0	27.47.255.255	786432
27.148.0.0	27.159.255.255	786432
42.48.0.0	42.59.255.255	786432
49.112.0.0	49.123.255.255	786432
58.14.0.0	58.25.255.255	786432
106.52.0.0	106.63.255.255	786432
110.80.0.0	110.91.255.255	786432
111.172.0.0	111.183.255.255	786432
113.132.0.0	113.143.255.255	786432
115.148.0.0	115.159.255.255	786432
120.76.0.0	120.87.255.255	786432
123.4.0.0	123.15.255.255	786432
221.172.0.0	221.183.255.255	786432
223.240.0.0	223.251.255.255	786432
112.122.0.0	112.132.255.255	720896
116.1.0.0	116.11.255.255	720896
123.52.0.0	123.62.255.255	720896
36.40.0.0	36.49.255.255	655360
101.192.0.0	101.201.255.255	655360
101.224.0.0	101.233.255.255	655360
110.56.0.0	110.65.255.255	655360
118.72.0.0	118.81.255.255	655360
118.190.0.0	118.199.255.255	655360
124.126.0.0	124.135.255.255	655360
175.146.0.0	175.155.255.255	655360
222.240.0.0	222.249.255.255	655360
223.120.0.0	223.129.255.255	655360
114.60.0.0	114.68.255.255	589824
119.32.0.0	119.40.79.255	544768
1.24.0.0	1.31.255.255	524288
1.56.0.0	1.63.255.255	524288
36.56.0.0	36.63.255.255	524288
42.192.0.0	42.199.255.255	524288
58.128.0.0	58.135.255.255	524288
61.48.0.0	61.55.255.255	524288
106.2.0.0	106.9.255.255	524288
111.72.0.0	111.79.255.255	524288
111.224.0.0	111.231.255.255	524288
113.44.0.0	113.51.255.255	524288
114.112.0.0	114.119.255.255	524288
115.100.0.0	115.107.255.255	524288
115.168.0.0	115.175.255.255	524288
116.242.0.0	116.249.255.255	524288
117.8.0.0	117.15.255.255	524288
117.112.0.0	117.119.255.255	524288
119.48.0.0	119.55.255.255	524288
119.84.0.0	119.91.255.255	524288
119.96.0.0	119.103.255.255	524288
120.64.0.0	120.71.255.255	524288
120.128.0.0	120.135.255.255	524288
121.192.0.0	121.199.255.255	524288
122.136.0.0	122.143.255.255	524288
122.188.0.0	122.195.255.255	524288
124.88.0.0	124.95.255.255	524288
124.112.0.0	124.119.255.255	524288
124.160.0.0	124.167.255.255	524288
124.200.0.0	124.207.255.255	524288
125.216.0.0	125.223.255.255	524288
171.8.0.0	171.15.255.255	524288
180.136.0.0	180.143.255.255	524288
182.200.0.0	182.207.255.255	524288
182.240.0.0	182.247.255.255	524288
211.64.0.0	211.71.255.255	524288
218.240.0.0	218.247.255.255	524288
223.208.0.0	223.215.255.255	524288
221.192.0.0	221.199.207.255	512000
122.4.0.0	122.11.127.255	491520
101.120.0.0	101.126.255.255	458752
101.129.0.0	101.135.255.255	458752
112.111.0.0	112.117.255.255	458752
113.12.0.0	113.18.255.255	458752
118.224.0.0	118.230.255.255	458752
175.185.0.0	175.191.255.255	458752
210.72.0.0	210.78.255.255	458752
119.2.128.0	119.8.255.255	425984
119.161.128.0	119.167.255.255	425984
1.180.0.0	1.185.255.255	393216
1.202.0.0	1.207.255.255	393216
61.232.0.0	61.237.255.255	393216
110.152.0.0	110.157.255.255	393216
111.112.0.0	111.117.255.255	393216
115.24.0.0	115.29.255.255	393216
116.52.0.0	116.57.255.255	393216
116.112.0.0	116.117.255.255	393216
118.202.0.0	118.207.255.255	393216
218.104.0.0	218.109.255.255	393216
219.242.0.0	219.247.255.255	393216
113.54.0.0	113.59.127.255	360448
116.214.128.0	116.219.255.255	360448
119.18.224.0	119.23.255.255	335872
49.51.0.0	49.55.255.255	327680
59.107.0.0	59.111.255.255	327680
111.120.0.0	111.124.255.255	327680
116.207.0.0	116.211.255.255	327680
118.180.0.0	118.184.255.255	327680
121.59.0.0	121.63.255.255	327680
220.248.0.0	220.252.255.255	327680
180.184.0.0	180.188.127.255	294912
1.12.0.0	1.15.255.255	262144
1.48.0.0	1.51.255.255	262144
1.68.0.0	1.71.255.255	262144
1.116.0.0	1.119.255.255	262144
36.4.0.0	36.7.255.255	262144
36.248.0.0	36.251.255.255	262144
42.4.0.0	42.7.255.255	262144
42.100.0.0	42.103.255.255	262144
49.4.0.0	49.7.255.255	262144
49.152.0.0	49.155.255.255	262144
49.208.0.0	49.211.255.255	262144
49.220.0.0	49.223.255.255	262144
49.232.0.0	49.235.255.255	262144
58.116.0.0	58.119.255.255	262144
59.172.0.0	59.175.255.255	262144
61.240.0.0	61.243.255.255	262144
101.4.0.0	101.7.255.255	262144
101.104.0.0	101.107.255.255	262144
101.204.0.0	101.207.255.255	262144
110.16.0.0	110.19.255.255	262144
110.40.0.0	110.43.255.255	262144
110.228.0.0	110.231.255.255	262144
112.192.0.0	112.195.255.255	262144
113.24.0.0	113.27.255.255	262144
113.204.0.0	113.207.255.255	262144
115.32.0.0	115.35.255.255	262144
115.120.0.0	115.123.255.255	262144
115.180.0.0	115.183.255.255	262144
116.60.0.0	116.63.255.255	262144
116.76.0.0	116.79.255.255	262144
117.48.0.0	117.51.255.255	262144
118.28.0.0	118.31.255.255	262144
118.132.0.0	118.135.255.255	262144
118.144.0.0	118.147.255.255	262144
119.248.0.0	119.251.255.255	262144
120.24.0.0	120.27.255.255	262144
120.52.0.0	120.55.255.255	262144
121.68.0.0	121.71.255.255	262144
121.204.0.0	121.207.255.255	262144
121.248.0.0	121.251.255.255	262144
122.112.0.0	122.115.255.255	262144
122.156.0.0	122.159.255.255	262144
122.204.0.0	122.207.255.255	262144
123.232.0.0	123.235.255.255	262144
123.244.0.0	123.247.255.255	262144
124.14.0.0	124.17.255.255	262144
124.20.0.0	124.23.255.255	262144
124.172.0.0	124.175.255.255	262144
153.34.0.0	153.37.255.255	262144
180.76.0.0	180.79.255.255	262144
180.88.0.0	180.91.255.255	262144
183.92.0.0	183.95.255.255	262144
183.172.0.0	183.175.255.255	262144
220.112.0.0	220.115.255.255	262144
222.160.0.0	222.163.255.255	262144
101.251.8.0	101.254.255.255	260096
119.59.128.0	119.62.255.255	229376
121.46.128.0	121.49.255.255	229376
221.128.128.0	221.131.255.255	229376
43.236.0.0	43.239.51.255	209920
103.32.0.0	103.35.51.255	209920
42.120.0.0	42.123.31.255	204800
180.200.252.0	180.203.255.255	197632
110.51.0.0	110.53.255.255	196608
112.73.0.0	112.75.255.255	196608
113.200.0.0	113.202.255.255	196608
116.194.0.0	116.196.255.255	196608
118.24.0.0	118.26.255.255	196608
118.64.0.0	118.66.255.255	196608
118.186.0.0	118.188.255.255	196608
119.78.0.0	119.80.255.255	196608
120.90.0.0	120.92.255.255	196608
122.12.0.0	122.14.255.255	196608
123.137.0.0	123.139.255.255	196608
124.249.0.0	124.251.255.255	196608
139.219.0.0	139.221.255.255	196608
140.205.0.0	140.207.255.255	196608
175.42.0.0	175.44.255.255	196608
180.84.0.0	180.86.255.255	196608
210.51.0.0	210.53.255.255	196608
221.13.0.0	221.15.255.255	196608
223.201.0.0	223.203.255.255	196608
119.27.64.0	119.29.255.255	180224
58.99.128.0	58.101.255.255	163840
121.56.0.0	121.58.127.255	163840
124.64.0.0	124.66.127.255	163840
14.130.0.0	14.131.255.255	131072
14.134.0.0	14.135.255.255	131072
14.196.0.0	14.197.255.255	131072
14.204.0.0	14.205.255.255	131072
27.128.0.0	27.129.255.255	131072
42.80.0.0	42.81.255.255	131072
49.140.0.0	49.141.255.255	131072
54.222.0.0	54.223.255.255	131072
58.66.0.0	58.67.255.255	131072
58.154.0.0	58.155.255.255	131072
60.194.0.0	60.195.255.255	131072
60.232.0.0	60.233.255.255	131072
106.74.0.0	106.75.255.255	131072
110.6.0.0	110.7.255.255	131072
110.72.0.0	110.73.255.255	131072
110.166.0.0	110.167.255.255	131072
110.236.0.0	110.237.255.255	131072
111.186.0.0	111.187.255.255	131072
113.194.0.0	113.195.255.255	131072
113.214.0.0	113.215.255.255	131072
114.54.0.0	114.55.255.255	131072
114.138.0.0	114.139.255.255	131072
114.196.0.0	114.197.255.255	131072
116.204.0.0	116.205.255.255	131072
116.252.0.0	116.253.255.255	131072
117.100.0.0	117.101.255.255	131072
117.106.0.0	117.107.255.255	131072
118.84.0.0	118.85.255.255	131072
118.212.0.0	118.213.255.255	131072
119.44.0.0	119.45.255.255	131072
119.57.0.0	119.58.255.255	131072
119.108.0.0	119.109.255.255	131072
119.232.0.0	119.233.255.255	131072
120.94.0.0	120.95.255.255	131072
121.4.0.0	121.5.255.255	131072
121.76.0.0	121.77.255.255	131072
123.196.0.0	123.197.255.255	131072
123.206.0.0	123.207.255.255	131072
124.151.0.0	124.152.255.255	131072
124.192.0.0	124.193.255.255	131072
125.210.0.0	125.211.255.255	131072
139.226.0.0	139.227.255.255	131072
140.249.0.0	140.250.255.255	131072
150.121.0.0	150.122.255.255	131072
150.138.0.0	150.139.255.255	131072
153.118.0.0	153.119.255.255	131072
175.30.0.0	175.31.255.255	131072
180.208.0.0	180.209.255.255	131072
180.212.0.0	180.213.255.255	131072
182.174.0.0	182.175.255.255	131072
183.84.0.0	183.85.255.255	131072
210.12.0.0	210.13.255.255	131072
210.21.0.0	210.22.255.255	131072
210.82.0.0	210.83.255.255	131072
220.154.0.0	220.155.255.255	131072
220.242.0.0	220.243.255.255	131072
221.122.0.0	221.123.255.255	131072
221.136.0.0	221.137.255.255	131072
223.20.0.0	223.21.255.255	131072
223.166.0.0	223.167.255.255	131072
223.192.0.0	223.193.255.255	131072
223.198.0.0	223.199.255.255	131072
223.220.0.0	223.221.255.255	131072
36.0.8.0	36.1.255.255	129024
118.88.32.0	118.89.255.255	122880
113.208.96.0	113.209.255.255	106496
116.198.0.0	116.199.159.255	106496
119.40.128.0	119.42.31.255	106496
42.96.108.0	42.97.255.255	103424
117.120.64.0	117.121.199.255	100352
111.221.128.0	111.222.255.255	98304
116.69.0.0	116.70.127.255	98304
117.57.0.0	117.58.127.255	98304
180.129.128.0	180.130.255.255	98304
223.254.0.0	223.255.127.255	98304
210.14.112.0	210.15.191.255	86016
110.75.0.0	110.76.63.255	81920
122.48.0.0	122.49.63.255	81920
180.222.224.0	180.223.255.255	73728
182.238.0.0	182.239.31.255	73728
203.93.0.0	203.94.31.255	73728
182.49.0.0	182.50.15.255	69632
1.3.0.0	1.3.255.255	65536
1.8.0.0	1.8.255.255	65536
1.45.0.0	1.45.255.255	65536
27.103.0.0	27.103.255.255	65536
27.144.0.0	27.144.255.255	65536
36.51.0.0	36.51.255.255	65536
36.254.0.0	36.254.255.255	65536
42.63.0.0	42.63.255.255	65536
58.83.0.0	58.83.255.255	65536
58.144.0.0	58.144.255.255	65536
59.155.0.0	59.155.255.255	65536
60.55.0.0	60.55.255.255	65536
60.63.0.0	60.63.255.255	65536
60.235.0.0	60.235.255.255	65536
60.247.0.0	60.247.255.255	65536
60.252.0.0	60.252.255.255	65536
60.255.0.0	60.255.255.255	65536
101.52.0.0	101.52.255.255	65536
101.54.0.0	101.54.255.255	65536
110.48.0.0	110.48.255.255	65536
111.66.0.0	111.66.255.255	65536
111.85.0.0	111.85.255.255	65536
111.170.0.0	111.170.255.255	65536
113.31.0.0	113.31.255.255	65536
114.28.0.0	114.28.255.255	65536
114.132.0.0	114.132.255.255	65536
114.135.0.0	114.135.255.255	65536
116.13.0.0	116.13.255.255	65536
116.85.0.0	116.85.255.255	65536
116.95.0.0	116.95.255.255	65536
118.178.0.0	118.178.255.255	65536
118.239.0.0	118.239.255.255	65536
118.242.0.0	118.242.255.255	65536
119.16.0.0	119.16.255.255	65536
121.51.0.0	121.51.255.255	65536
121.89.0.0	121.89.255.255	65536
121.201.0.0	121.201.255.255	65536
121.255.0.0	121.255.255.255	65536
122.51.0.0	122.51.255.255	65536
122.119.0.0	122.119.255.255	65536
122.198.0.0	122.198.255.255	65536
123.101.0.0	123.101.255.255	65536
123.249.0.0	123.249.255.255	65536
123.253.0.0	123.253.255.255	65536
124.31.0.0	124.31.255.255	65536
124.42.0.0	124.42.255.255	65536
124.156.0.0	124.156.255.255	65536
124.196.0.0	124.196.255.255	65536
124.242.0.0	124.242.255.255	65536
125.169.0.0	125.169.255.255	65536
125.171.0.0	125.171.255.255	65536
139.9.0.0	139.9.255.255	65536
139.129.0.0	139.129.255.255	65536
139.148.0.0	139.148.255.255	65536
139.155.0.0	139.155.255.255	65536
139.159.0.0	139.159.255.255	65536
139.170.0.0	139.170.255.255	65536
139.176.0.0	139.176.255.255	65536
139.183.0.0	139.183.255.255	65536
139.186.0.0	139.186.255.255	65536
139.189.0.0	139.189.255.255	65536
139.217.0.0	139.217.255.255	65536
139.224.0.0	139.224.255.255	65536
140.75.0.0	140.75.255.255	65536
140.143.0.0	140.143.255.255	65536
140.210.0.0	140.210.255.255	65536
140.224.0.0	140.224.255.255	65536
140.237.0.0	140.237.255.255	65536
140.240.0.0	140.240.255.255	65536
140.243.0.0	140.243.255.255	65536
140.246.0.0	140.246.255.255	65536
140.255.0.0	140.255.255.255	65536
144.0.0.0	144.0.255.255	65536
144.7.0.0	144.7.255.255	65536
144.12.0.0	144.12.255.255	65536
144.52.0.0	144.52.255.255	65536
144.123.0.0	144.123.255.255	65536
144.255.0.0	144.255.255.255	65536
150.0.0.0	150.0.255.255	65536
150.115.0.0	150.115.255.255	65536
150.223.0.0	150.223.255.255	65536
150.255.0.0	150.255.255.255	65536
153.0.0.0	153.0.255.255	65536
153.3.0.0	153.3.255.255	65536
153.99.0.0	153.99.255.255	65536
153.101.0.0	153.101.255.255	65536
157.0.0.0	157.0.255.255	65536
157.18.0.0	157.18.255.255	65536
157.61.0.0	157.61.255.255	65536
157.122.0.0	157.122.255.255	65536
157.148.0.0	157.148.255.255	65536
157.156.0.0	157.156.255.255	65536
157.255.0.0	157.255.255.255	65536
159.226.0.0	159.226.255.255	65536
161.207.0.0	161.207.255.255	65536
162.105.0.0	162.105.255.255	65536
163.0.0.0	163.0.255.255	65536
163.125.0.0	163.125.255.255	65536
163.142.0.0	163.142.255.255	65536
163.177.0.0	163.177.255.255	65536
163.179.0.0	163.179.255.255	65536
163.204.0.0	163.204.255.255	65536
166.111.0.0	166.111.255.255	65536
167.139.0.0	167.139.255.255	65536
167.189.0.0	167.189.255.255	65536
168.160.0.0	168.160.255.255	65536
175.102.0.0	175.102.255.255	65536
175.178.0.0	175.178.255.255	65536
182.51.0.0	182.51.255.255	65536
182.61.0.0	182.61.255.255	65536
182.157.0.0	182.157.255.255	65536
182.254.0.0	182.254.255.255	65536
218.249.0.0	218.249.255.255	65536
219.72.0.0	219.72.255.255	65536
219.82.0.0	219.82.255.255	65536
220.234.0.0	220.234.255.255	65536
222.125.0.0	222.125.255.255	65536
39.0.2.0	39.0.255.255	65024
42.123.36.0	42.123.255.255	56320
203.207.64.0	203.208.19.255	54272
110.76.192.0	110.77.127.255	49152
116.213.64.0	116.213.255.255	49152
121.100.128.0	121.101.63.255	49152
122.0.64.0	122.0.255.255	49152
124.28.192.0	124.29.127.255	49152
125.61.128.0	125.62.63.255	49152
42.0.128.0	42.1.59.255	48128
42.62.0.0	42.62.175.255	45056
218.100.88.0	218.100.255.255	43008
123.99.128.0	123.100.31.255	40960
203.175.192.0	203.176.95.255	40960
203.195.128.0	203.196.15.255	36864
203.119.113.0	203.119.255.255	36608
103.235.220.0	103.236.99.255	34816
27.50.128.0	27.50.255.255	32768
27.99.128.0	27.99.255.255	32768
27.115.0.0	27.115.127.255	32768
42.1.128.0	42.1.255.255	32768
42.187.128.0	42.187.255.255	32768
42.201.0.0	42.201.127.255	32768
58.68.128.0	58.68.255.255	32768
58.82.0.0	58.82.127.255	32768
59.151.0.0	59.151.127.255	32768
59.191.0.0	59.191.127.255	32768
60.245.128.0	60.245.255.255	32768
60.253.128.0	60.253.255.255	32768
61.28.0.0	61.28.127.255	32768
61.29.128.0	61.29.255.255	32768
101.96.128.0	101.96.255.255	32768
112.109.128.0	112.109.255.255	32768
113.213.0.0	113.213.127.255	32768
116.66.0.0	116.66.127.255	32768
116.254.128.0	116.254.255.255	32768
116.255.128.0	116.255.255.255	32768
117.122.128.0	117.122.255.255	32768
119.10.0.0	119.10.127.255	32768
120.72.128.0	120.72.255.255	32768
120.137.0.0	120.137.127.255	32768
122.144.128.0	122.144.255.255	32768
123.49.128.0	123.49.255.255	32768
123.103.0.0	123.103.127.255	32768
123.199.128.0	123.199.255.255	32768
123.242.0.0	123.242.127.255	32768
124.147.128.0	124.147.255.255	32768
124.248.0.0	124.248.127.255	32768
125.58.128.0	125.58.255.255	32768
125.213.0.0	125.213.127.255	32768
125.254.128.0	125.254.255.255	32768
152.104.128.0	152.104.255.255	32768
175.106.128.0	175.106.255.255	32768
182.18.0.0	182.18.127.255	32768
182.54.0.0	182.54.127.255	32768
182.236.128.0	182.236.255.255	32768
203.86.0.0	203.86.127.255	32768
203.107.0.0	203.107.127.255	32768
203.205.128.0	203.205.255.255	32768
219.83.128.0	219.83.255.255	32768
220.152.128.0	220.152.255.255	32768
220.231.128.0	220.231.255.255	32768
222.126.128.0	222.126.255.255	32768
223.252.128.0	223.252.255.255	32768
1.4.1.0	1.4.127.255	32512
1.2.4.0	1.2.127.255	31744
1.10.11.0	1.10.127.255	29952
42.99.0.0	42.99.115.255	29696
110.172.192.0	110.173.47.255	28672
124.40.112.0	124.40.223.255	28672
43.246.0.0	43.246.99.255	25600
103.22.0.0	103.22.95.255	24576
111.119.64.0	111.119.159.255	24576
180.233.0.0	180.233.95.255	24576
203.90.128.0	203.90.223.255	24576
203.95.96.0	203.95.191.255	24576
202.38.48.0	202.38.138.255	23296
103.36.160.0	103.36.247.255	22528
103.237.176.0	103.238.7.255	22528
203.148.0.0	203.148.83.255	21504
43.248.76.0	43.248.151.255	19456
202.38.184.0	202.38.255.255	18432
43.240.156.0	43.240.223.255	17408
43.247.196.0	43.248.7.255	17408
27.54.192.0	27.54.255.255	16384
27.106.128.0	27.106.191.255	16384
27.112.0.0	27.112.63.255	16384
27.113.128.0	27.113.191.255	16384
49.239.0.0	49.239.63.255	16384
49.239.192.0	49.239.255.255	16384
58.87.64.0	58.87.127.255	16384
61.45.128.0	61.45.191.255	16384
61.47.128.0	61.47.191.255	16384
61.87.192.0	61.87.255.255	16384
106.0.64.0	106.0.127.255	16384
110.173.64.0	110.173.127.255	16384
113.212.0.0	113.212.63.255	16384
114.79.64.0	114.79.127.255	16384
114.110.64.0	114.110.127.255	16384
114.141.128.0	114.141.191.255	16384
115.84.0.0	115.84.63.255	16384
115.85.192.0	115.85.255.255	16384
116.251.64.0	116.251.127.255	16384
119.151.192.0	119.151.255.255	16384
119.235.128.0	119.235.191.255	16384
120.136.128.0	120.136.191.255	16384
121.46.0.0	121.46.63.255	16384
121.55.0.0	121.55.63.255	16384
121.79.128.0	121.79.191.255	16384
122.152.192.0	122.152.255.255	16384
122.200.64.0	122.200.127.255	16384
123.0.128.0	123.0.191.255	16384
124.6.64.0	124.6.127.255	16384
124.47.0.0	124.47.63.255	16384
124.243.192.0	124.243.255.255	16384
124.254.0.0	124.254.63.255	16384
125.208.0.0	125.208.63.255	16384
125.215.0.0	125.215.63.255	16384
175.184.128.0	175.184.191.255	16384
180.178.192.0	180.178.255.255	16384
202.148.64.0	202.148.127.255	16384
202.189.0.0	202.189.63.255	16384
203.105.96.0	203.105.159.255	16384
203.156.192.0	203.156.255.255	16384
203.191.64.0	203.191.127.255	16384
210.16.128.0	210.16.191.255	16384
210.79.64.0	210.79.127.255	16384
210.87.128.0	210.87.191.255	16384
210.185.192.0	210.185.255.255	16384
220.101.192.0	220.101.255.255	16384
220.231.0.0	220.231.63.255	16384
220.232.64.0	220.232.127.255	16384
1.1.2.0	1.1.63.255	15872
103.3.84.0	103.3.143.255	15360
101.128.8.0	101.128.63.255	14336
202.127.112.0	202.127.167.255	14336
101.234.76.0	101.234.127.255	13312
163.53.88.0	163.53.139.255	13312
27.98.208.0	27.98.255.255	12288
101.110.64.0	101.110.111.255	12288
116.193.16.0	116.193.63.255	12288
116.214.32.0	116.214.79.255	12288
121.52.208.0	121.52.255.255	12288
203.100.80.0	203.100.127.255	12288
43.240.236.0	43.241.23.255	11264
103.238.16.0	103.238.59.255	11264
202.127.212.0	202.127.255.255	11264
42.96.64.0	42.96.103.255	10240
101.203.128.0	101.203.167.255	10240
180.148.216.0	180.148.255.255	10240
202.170.216.0	202.170.255.255	10240
43.241.208.0	43.241.243.255	9216
43.248.176.0	43.248.211.255	9216
103.39.200.0	103.39.235.255	9216
103.40.12.0	103.40.47.255	9216
111.235.156.0	111.235.191.255	9216
202.91.224.0	202.92.3.255	9216
202.150.224.0	202.151.3.255	9216
1.0.32.0	1.0.63.255	8192
27.109.32.0	27.109.63.255	8192
42.0.32.0	42.0.63.255	8192
42.156.0.0	42.156.31.255	8192
49.246.224.0	49.246.255.255	8192
101.78.32.0	101.78.63.255	8192
101.99.96.0	101.99.127.255	8192
101.101.64.0	101.101.95.255	8192
101.102.64.0	101.102.95.255	8192
103.37.136.0	103.37.167.255	8192
103.39.160.0	103.39.191.255	8192
103.40.228.0	103.41.3.255	8192
103.238.160.0	103.238.191.255	8192
110.93.32.0	110.93.63.255	8192
110.165.32.0	110.165.63.255	8192
110.173.192.0	110.173.223.255	8192
110.232.32.0	110.232.63.255	8192
111.68.64.0	111.68.95.255	8192
111.91.192.0	111.91.223.255	8192
111.235.96.0	111.235.127.255	8192
113.11.192.0	113.11.223.255	8192
113.52.160.0	113.52.191.255	8192
114.111.0.0	114.111.31.255	8192
114.111.160.0	114.111.191.255	8192
115.84.192.0	115.84.223.255	8192
115.166.64.0	115.166.95.255	8192
117.74.64.0	117.74.95.255	8192
118.127.128.0	118.127.159.255	8192
119.31.192.0	119.31.223.255	8192
119.42.224.0	119.42.255.255	8192
119.63.32.0	119.63.63.255	8192
119.148.160.0	119.148.191.255	8192
120.72.32.0	120.72.63.255	8192
120.143.128.0	120.143.159.255	8192
121.52.160.0	121.52.191.255	8192
121.58.136.0	121.58.167.255	8192
122.102.64.0	122.102.95.255	8192
123.50.160.0	123.50.191.255	8192
125.214.96.0	125.214.127.255	8192
163.53.36.0	163.53.67.255	8192
180.149.128.0	180.149.159.255	8192
180.150.160.0	180.150.191.255	8192
180.210.224.0	180.210.255.255	8192
180.235.64.0	180.235.95.255	8192
182.16.192.0	182.16.223.255	8192
182.48.96.0	182.48.127.255	8192
182.160.64.0	182.160.95.255	8192
183.182.0.0	183.182.31.255	8192
202.4.128.0	202.4.159.255	8192
202.8.128.0	202.8.159.255	8192
202.46.32.0	202.46.63.255	8192
202.63.160.0	202.63.191.255	8192
202.70.0.0	202.70.31.255	8192
202.95.0.0	202.95.31.255	8192
202.122.64.0	202.122.95.255	8192
202.130.0.0	202.130.31.255	8192
202.130.224.0	202.130.255.255	8192
202.136.208.0	202.136.239.255	8192
202.141.160.0	202.141.191.255	8192
202.143.16.0	202.143.47.255	8192
202.149.32.0	202.149.63.255	8192
202.149.160.0	202.149.191.255	8192
202.149.224.0	202.149.255.255	8192
202.150.16.0	202.150.47.255	8192
202.151.128.0	202.151.159.255	8192
202.157.192.0	202.157.223.255	8192
202.158.160.0	202.158.191.255	8192
202.164.96.0	202.164.127.255	8192
202.166.224.0	202.166.255.255	8192
202.168.160.0	202.168.191.255	8192
202.170.128.0	202.170.159.255	8192
202.173.224.0	202.173.255.255	8192
202.176.224.0	202.176.255.255	8192
202.180.128.0	202.180.159.255	8192
202.182.192.0	202.182.223.255	8192
203.88.32.0	203.88.63.255	8192
203.88.192.0	203.88.223.255	8192
203.91.32.0	203.91.63.255	8192
203.92.160.0	203.92.191.255	8192
203.95.224.0	203.95.255.255	8192
203.110.160.0	203.110.191.255	8192
203.118.192.0	203.118.223.255	8192
203.128.32.0	203.128.63.255	8192
203.128.96.0	203.128.127.255	8192
203.130.32.0	203.130.63.255	8192
203.132.32.0	203.132.63.255	8192
203.135.96.0	203.135.127.255	8192
203.142.224.0	203.142.255.255	8192
203.144.96.0	203.144.127.255	8192
203.145.0.0	203.145.31.255	8192
203.152.64.0	203.152.95.255	8192
203.152.128.0	203.152.159.255	8192
203.160.192.0	203.160.223.255	8192
203.161.192.0	203.161.223.255	8192
203.166.160.0	203.166.191.255	8192
203.168.0.0	203.168.31.255	8192
203.174.96.0	203.174.127.255	8192
203.175.128.0	203.175.159.255	8192
203.187.160.0	203.187.191.255	8192
203.189.192.0	203.189.223.255	8192
203.192.0.0	203.192.31.255	8192
203.193.224.0	203.193.255.255	8192
203.195.64.0	203.195.95.255	8192
203.205.64.0	203.205.95.255	8192
203.208.32.0	203.208.63.255	8192
203.209.224.0	203.209.255.255	8192
210.2.0.0	210.2.31.255	8192
210.5.0.0	210.5.31.255	8192
210.5.128.0	210.5.159.255	8192
210.14.64.0	210.14.95.255	8192
210.23.32.0	210.23.63.255	8192
210.56.192.0	210.56.223.255	8192
210.79.224.0	210.79.255.255	8192
210.192.96.0	210.192.127.255	8192
218.185.192.0	218.185.223.255	8192
221.133.224.0	221.133.255.255	8192
223.223.176.0	223.223.207.255	8192
103.244.58.0	103.244.87.255	7680
106.0.2.0	106.0.31.255	7680
43.242.8.0	43.242.35.255	7168
43.242.72.0	43.242.99.255	7168
43.242.144.0	43.242.171.255	7168
43.249.144.0	43.249.171.255	7168
103.22.100.0	103.22.127.255	7168
103.31.48.0	103.31.75.255	7168
202.60.132.0	202.60.159.255	7168
202.191.68.0	202.191.95.255	7168
203.80.132.0	203.80.159.255	7168
101.101.102.0	101.101.127.255	6656
36.37.39.0	36.37.63.255	6400
43.242.44.0	43.242.67.255	6144
43.250.96.0	43.250.119.255	6144
43.254.136.0	43.254.159.255	6144
43.254.180.0	43.254.203.255	6144
43.254.220.0	43.254.243.255	6144
101.102.104.0	101.102.127.255	6144
103.25.20.0	103.25.43.255	6144
103.235.128.0	103.235.151.255	6144
113.130.96.0	113.130.119.255	6144
118.102.16.0	118.102.39.255	6144
119.18.192.0	119.18.215.255	6144
121.0.8.0	121.0.31.255	6144
183.91.136.0	183.91.159.255	6144
202.127.40.0	202.127.63.255	6144
203.99.8.0	203.99.31.255	6144
203.100.32.0	203.100.55.255	6144
203.223.0.0	203.223.23.255	6144
202.83.252.0	202.84.17.255	5632
42.0.8.0	42.0.27.255	5120
42.83.64.0	42.83.83.255	5120
43.224.200.0	43.224.219.255	5120
43.241.76.0	43.241.95.255	5120
43.241.168.0	43.241.187.255	5120
43.247.84.0	43.247.103.255	5120
43.254.248.0	43.255.11.255	5120
43.255.60.0	43.255.79.255	5120
101.203.172.0	101.203.191.255	5120
150.242.152.0	150.242.171.255	5120
150.242.232.0	150.242.251.255	5120
202.127.12.0	202.127.31.255	5120
202.127.192.0	202.127.209.255	4608
202.45.15.0	202.45.31.255	4352
202.57.240.0	202.58.0.255	4352
202.122.112.0	202.122.128.255	4352
27.112.80.0	27.112.95.255	4096
43.240.124.0	43.240.139.255	4096
43.243.4.0	43.243.19.255	4096
43.247.176.0	43.247.191.255	4096
43.255.200.0	43.255.215.255	4096
61.4.80.0	61.4.95.255	4096
61.4.176.0	61.4.191.255	4096
61.8.160.0	61.8.175.255	4096
61.45.224.0	61.45.239.255	4096
101.96.16.0	101.96.31.255	4096
103.2.200.0	103.2.215.255	4096
103.37.208.0	103.37.223.255	4096
103.38.220.0	103.38.235.255	4096
103.41.220.0	103.41.235.255	4096
103.224.220.0	103.224.235.255	4096
103.237.0.0	103.237.15.255	4096
103.249.164.0	103.249.179.255	4096
103.254.64.0	103.254.79.255	4096
110.44.144.0	110.44.159.255	4096
111.67.192.0	111.67.207.255	4096
114.110.0.0	114.110.15.255	4096
115.69.64.0	115.69.79.255	4096
115.124.16.0	115.124.31.255	4096
116.50.0.0	116.50.15.255	4096
116.58.128.0	116.58.143.255	4096
116.58.208.0	116.58.223.255	4096
116.89.144.0	116.89.159.255	4096
116.90.80.0	116.90.95.255	4096
116.212.160.0	116.212.175.255	4096
117.53.48.0	117.53.63.255	4096
117.53.176.0	117.53.191.255	4096
117.103.16.0	117.103.31.255	4096
117.103.128.0	117.103.143.255	4096
118.67.112.0	118.67.127.255	4096
118.91.240.0	118.91.255.255	4096
119.30.48.0	119.30.63.255	4096
119.42.128.0	119.42.143.255	4096
119.75.208.0	119.75.223.255	4096
119.82.208.0	119.82.223.255	4096
121.101.208.0	121.101.223.255	4096
122.102.0.0	122.102.15.255	4096
122.201.48.0	122.201.63.255	4096
122.248.48.0	122.248.63.255	4096
123.108.128.0	123.108.143.255	4096
123.108.208.0	123.108.223.255	4096
123.136.80.0	123.136.95.255	4096
123.176.80.0	123.176.95.255	4096
150.242.44.0	150.242.59.255	4096
163.53.0.0	163.53.15.255	4096
163.53.160.0	163.53.175.255	4096
180.94.96.0	180.94.111.255	4096
182.50.112.0	182.50.127.255	4096
202.6.176.0	202.6.191.255	4096
202.8.192.0	202.8.207.255	4096
202.10.64.0	202.10.79.255	4096
202.41.240.0	202.41.255.255	4096
202.43.144.0	202.43.159.255	4096
202.44.16.0	202.44.31.255	4096
202.46.224.0	202.46.239.255	4096
202.60.112.0	202.60.127.255	4096
202.69.16.0	202.69.31.255	4096
202.70.96.0	202.70.111.255	4096
202.70.192.0	202.70.207.255	4096
202.72.80.0	202.72.95.255	4096
202.74.80.0	202.74.95.255	4096
202.75.208.0	202.75.223.255	4096
202.80.192.0	202.80.207.255	4096
202.85.208.0	202.85.223.255	4096
202.87.80.0	202.87.95.255	4096
202.90.112.0	202.90.127.255	4096
202.90.224.0	202.90.239.255	4096
202.91.96.0	202.91.111.255	4096
202.91.176.0	202.91.191.255	4096
202.92.48.0	202.92.63.255	4096
202.123.96.0	202.123.111.255	4096
202.125.112.0	202.125.127.255	4096
202.125.176.0	202.125.191.255	4096
202.131.48.0	202.131.63.255	4096
202.131.208.0	202.131.223.255	4096
202.133.32.0	202.133.47.255	4096
202.134.128.0	202.134.143.255	4096
202.136.48.0	202.136.63.255	4096
202.142.16.0	202.142.31.255	4096
202.146.160.0	202.146.175.255	4096
202.147.144.0	202.147.159.255	4096
202.148.32.0	202.148.47.255	4096
202.150.192.0	202.150.207.255	4096
202.152.176.0	202.152.191.255	4096
202.153.48.0	202.153.63.255	4096
202.160.176.0	202.160.191.255	4096
202.164.0.0	202.164.15.255	4096
202.165.96.0	202.165.111.255	4096
202.165.176.0	202.165.191.255	4096
202.165.208.0	202.165.223.255	4096
202.174.64.0	202.174.79.255	4096
202.179.240.0	202.179.255.255	4096
202.181.112.0	202.181.127.255	4096
202.182.32.0	202.182.47.255	4096
202.189.80.0	202.189.95.255	4096
203.6.224.0	203.6.239.255	4096
203.15.0.0	203.15.15.255	4096
203.25.208.0	203.25.223.255	4096
203.57.224.0	203.57.239.255	4096
203.78.48.0	203.78.63.255	4096
203.79.0.0	203.79.15.255	4096
203.79.32.0	203.79.47.255	4096
203.80.32.0	203.80.47.255	4096
203.81.16.0	203.81.31.255	4096
203.83.224.0	203.83.239.255	4096
203.91.96.0	203.91.111.255	4096
203.99.80.0	203.99.95.255	4096
203.100.192.0	203.100.207.255	4096
203.104.32.0	203.104.47.255	4096
203.110.208.0	203.110.223.255	4096
203.135.160.0	203.135.175.255	4096
203.171.224.0	203.171.239.255	4096
203.184.80.0	203.184.95.255	4096
203.190.96.0	203.190.111.255	4096
203.191.16.0	203.191.31.255	4096
203.191.144.0	203.191.159.255	4096
203.212.0.0	203.212.15.255	4096
203.212.80.0	203.212.95.255	4096
203.222.192.0	203.222.207.255	4096
202.63.81.0	202.63.95.255	3840
43.251.4.0	43.251.17.255	3584
42.62.180.0	42.62.191.255	3072
43.224.64.0	43.224.75.255	3072
43.240.68.0	43.240.79.255	3072
43.242.188.0	43.242.199.255	3072
43.249.0.0	43.249.11.255	3072
43.250.12.0	43.250.23.255	3072
43.250.28.0	43.250.39.255	3072
43.250.168.0	43.250.179.255	3072
43.250.212.0	43.250.223.255	3072
43.254.0.0	43.254.11.255	3072
43.254.84.0	43.254.95.255	3072
43.255.224.0	43.255.235.255	3072
101.110.116.0	101.110.127.255	3072
103.3.148.0	103.3.159.255	3072
103.7.212.0	103.7.223.255	3072
103.9.248.0	103.10.3.255	3072
103.16.80.0	103.16.91.255	3072
103.19.64.0	103.19.75.255	3072
103.29.128.0	103.29.139.255	3072
103.36.56.0	103.36.67.255	3072
103.37.248.0	103.38.3.255	3072
103.39.100.0	103.39.111.255	3072
103.42.24.0	103.42.35.255	3072
103.43.96.0	103.43.107.255	3072
103.227.72.0	103.227.83.255	3072
103.229.212.0	103.229.223.255	3072
103.230.196.0	103.230.207.255	3072
103.238.88.0	103.238.99.255	3072
103.239.176.0	103.239.187.255	3072
103.242.168.0	103.242.179.255	3072
103.247.168.0	103.247.179.255	3072
150.242.0.0	150.242.11.255	3072
150.242.112.0	150.242.123.255	3072
150.242.184.0	150.242.195.255	3072
202.124.16.0	202.124.27.255	3072
202.146.196.0	202.146.207.255	3072
203.12.196.0	203.12.207.255	3072
203.119.24.0	203.119.35.255	3072
1.10.0.0	1.10.9.255	2560
202.65.0.0	202.65.9.255	2560
203.13.80.0	203.13.89.255	2560
203.15.232.0	203.15.241.255	2560
203.3.112.0	203.3.120.255	2304
203.8.23.0	203.8.31.255	2304
203.12.87.0	203.12.95.255	2304
203.14.184.0	203.14.192.255	2304
203.20.135.0	203.20.143.255	2304
203.33.7.0	203.33.15.255	2304
1.0.8.0	1.0.15.255	2048
14.0.0.0	14.0.7.255	2048
27.34.232.0	27.34.239.255	2048
27.50.40.0	27.50.47.255	2048
27.54.72.0	27.54.79.255	2048
27.54.152.0	27.54.159.255	2048
27.121.72.0	27.121.79.255	2048
27.121.120.0	27.121.127.255	2048
42.99.120.0	42.99.127.255	2048
43.224.52.0	43.224.59.255	2048
43.224.140.0	43.224.147.255	2048
43.240.56.0	43.240.63.255	2048
43.241.248.0	43.241.255.255	2048
43.242.216.0	43.242.223.255	2048
43.243.144.0	43.243.151.255	2048
43.243.228.0	43.243.235.255	2048
43.247.4.0	43.247.11.255	2048
43.247.44.0	43.247.51.255	2048
43.247.108.0	43.247.115.255	2048
43.247.148.0	43.247.155.255	2048
43.248.228.0	43.248.235.255	2048
43.249.132.0	43.249.139.255	2048
43.250.144.0	43.250.151.255	2048
43.251.232.0	43.251.239.255	2048
43.254.100.0	43.254.107.255	2048
43.254.112.0	43.254.119.255	2048
43.254.168.0	43.254.175.255	2048
58.65.232.0	58.65.239.255	2048
101.55.224.0	101.55.231.255	2048
101.234.64.0	101.234.71.255	2048
103.1.20.0	103.1.27.255	2048
103.5.52.0	103.5.59.255	2048
103.8.4.0	103.8.11.255	2048
103.8.200.0	103.8.207.255	2048
103.14.132.0	103.14.139.255	2048
103.15.4.0	103.15.11.255	2048
103.18.208.0	103.18.215.255	2048
103.19.40.0	103.19.47.255	2048
103.21.112.0	103.21.119.255	2048
103.21.136.0	103.21.143.255	2048
103.23.160.0	103.23.167.255	2048
103.24.248.0	103.24.255.255	2048
103.25.64.0	103.25.71.255	2048
103.26.156.0	103.26.163.255	2048
103.28.4.0	103.28.11.255	2048
103.36.132.0	103.36.139.255	2048
103.37.12.0	103.37.19.255	2048
103.37.52.0	103.37.59.255	2048
103.37.100.0	103.37.107.255	2048
103.37.172.0	103.37.179.255	2048
103.38.40.0	103.38.47.255	2048
103.38.92.0	103.38.99.255	2048
103.41.148.0	103.41.155.255	2048
103.41.160.0	103.41.167.255	2048
103.42.64.0	103.42.71.255	2048
103.43.192.0	103.43.199.255	2048
103.43.220.0	103.43.227.255	2048
103.224.40.0	103.224.47.255	2048
103.226.56.0	103.226.63.255	2048
103.227.132.0	103.227.139.255	2048
103.228.204.0	103.228.211.255	2048
103.228.228.0	103.228.235.255	2048
103.229.236.0	103.229.243.255	2048
103.230.40.0	103.230.47.255	2048
103.231.16.0	103.231.23.255	2048
103.231.64.0	103.231.71.255	2048
103.231.180.0	103.231.187.255	2048
103.234.124.0	103.234.131.255	2048
103.235.56.0	103.235.63.255	2048
103.235.80.0	103.235.87.255	2048
103.237.24.0	103.237.31.255	2048
103.238.140.0	103.238.147.255	2048
103.238.252.0	103.239.3.255	2048
103.239.40.0	103.239.47.255	2048
103.239.152.0	103.239.159.255	2048
103.239.192.0	103.239.199.255	2048
103.239.204.0	103.239.211.255	2048
103.241.92.0	103.241.99.255	2048
103.241.184.0	103.241.191.255	2048
103.242.128.0	103.242.135.255	2048
103.245.124.0	103.245.131.255	2048
103.246.8.0	103.246.15.255	2048
103.246.120.0	103.246.127.255	2048
103.246.152.0	103.246.159.255	2048
103.248.224.0	103.248.231.255	2048
103.249.188.0	103.249.195.255	2048
103.250.248.0	103.250.255.255	2048
103.251.124.0	103.251.131.255	2048
103.251.236.0	103.251.243.255	2048
103.252.204.0	103.252.211.255	2048
103.253.220.0	103.253.227.255	2048
103.255.88.0	103.255.95.255	2048
103.255.136.0	103.255.143.255	2048
103.255.208.0	103.255.215.255	2048
111.118.200.0	111.118.207.255	2048
112.137.48.0	112.137.55.255	2048
113.212.184.0	113.212.191.255	2048
114.141.64.0	114.141.71.255	2048
114.198.248.0	114.198.255.255	2048
116.0.8.0	116.0.15.255	2048
116.0.24.0	116.0.31.255	2048
116.90.184.0	116.90.191.255	2048
116.193.176.0	116.193.183.255	2048
117.103.40.0	117.103.47.255	2048
117.103.72.0	117.103.79.255	2048
117.104.168.0	117.104.175.255	2048
119.15.136.0	119.15.143.255	2048
119.160.200.0	119.160.207.255	2048
119.252.96.0	119.252.103.255	2048
120.88.8.0	120.88.15.255	2048
121.50.8.0	121.50.15.255	2048
121.54.176.0	121.54.183.255	2048
121.200.192.0	121.200.199.255	2048
122.128.120.0	122.128.127.255	2048
122.248.24.0	122.248.31.255	2048
122.255.64.0	122.255.71.255	2048
124.108.8.0	124.108.15.255	2048
124.108.40.0	124.108.47.255	2048
124.109.96.0	124.109.103.255	2048
150.242.76.0	150.242.83.255	2048
150.242.92.0	150.242.99.255	2048
180.94.56.0	180.94.63.255	2048
180.148.16.0	180.148.23.255	2048
180.148.152.0	180.148.159.255	2048
182.23.184.0	182.23.191.255	2048
182.23.200.0	182.23.207.255	2048
202.22.248.0	202.22.255.255	2048
202.38.8.0	202.38.15.255	2048
202.38.149.0	202.38.156.255	2048
202.38.164.0	202.38.171.255	2048
202.41.152.0	202.41.159.255	2048
202.60.48.0	202.60.55.255	2048
202.60.96.0	202.60.103.255	2048
202.72.40.0	202.72.47.255	2048
202.74.8.0	202.74.15.255	2048
202.77.80.0	202.77.87.255	2048
202.78.8.0	202.78.15.255	2048
202.79.224.0	202.79.231.255	2048
202.84.24.0	202.84.31.255	2048
202.89.8.0	202.89.15.255	2048
202.92.8.0	202.92.15.255	2048
202.92.252.0	202.93.3.255	2048
202.95.240.0	202.95.247.255	2048
202.122.32.0	202.122.39.255	2048
202.127.0.0	202.127.7.255	2048
202.131.16.0	202.131.23.255	2048
202.143.56.0	202.143.63.255	2048
202.171.216.0	202.171.223.255	2048
202.173.8.0	202.173.15.255	2048
202.180.208.0	202.180.215.255	2048
202.189.184.0	202.189.191.255	2048
203.0.104.0	203.0.111.255	2048
203.2.64.0	203.2.71.255	2048
203.2.112.0	203.2.119.255	2048
203.2.160.0	203.2.167.255	2048
203.3.80.0	203.3.87.255	2048
203.15.112.0	203.15.119.255	2048
203.16.16.0	203.16.23.255	2048
203.19.32.0	203.19.39.255	2048
203.22.176.0	203.22.183.255	2048
203.25.48.0	203.25.55.255	2048
203.34.192.0	203.34.199.255	2048
203.56.48.0	203.56.55.255	2048
203.81.0.0	203.81.7.255	2048
203.82.16.0	203.82.23.255	2048
203.83.56.0	203.83.63.255	2048
203.89.8.0	203.89.15.255	2048
203.91.120.0	203.91.127.255	2048
203.95.0.0	203.95.7.255	2048
203.128.224.0	203.128.231.255	2048
203.129.8.0	203.129.15.255	2048
203.134.240.0	203.134.247.255	2048
203.158.16.0	203.158.23.255	2048
203.160.104.0	203.160.111.255	2048
203.176.168.0	203.176.175.255	2048
203.194.120.0	203.194.127.255	2048
203.195.112.0	203.195.119.255	2048
203.215.232.0	203.215.239.255	2048
210.5.56.0	210.5.63.255	2048
210.48.136.0	210.48.143.255	2048
218.185.240.0	218.185.247.255	2048
220.247.136.0	220.247.143.255	2048
203.1.97.0	203.1.103.255	1792
203.8.209.0	203.8.215.255	1792
203.0.130.0	203.0.135.255	1536
203.2.152.0	203.2.157.255	1536
203.5.52.0	203.5.57.255	1536
203.9.96.0	203.9.101.255	1536
203.23.226.0	203.23.231.255	1536
202.14.235.0	202.14.239.255	1280
202.21.150.0	202.21.154.255	1280
202.62.248.0	202.62.252.255	1280
202.165.251.0	202.165.255.255	1280
203.4.151.0	203.4.155.255	1280
203.10.84.0	203.10.88.255	1280
14.0.12.0	14.0.15.255	1024
14.1.0.0	14.1.3.255	1024
14.102.128.0	14.102.131.255	1024
14.102.156.0	14.102.159.255	1024
14.192.60.0	14.192.63.255	1024
14.192.76.0	14.192.79.255	1024
27.106.204.0	27.106.207.255	1024
27.116.44.0	27.116.47.255	1024
27.131.220.0	27.131.223.255	1024
36.0.0.0	36.0.3.255	1024
42.0.0.0	42.0.3.255	1024
43.224.12.0	43.224.15.255	1024
43.224.24.0	43.224.27.255	1024
43.224.44.0	43.224.47.255	1024
43.224.80.0	43.224.83.255	1024
43.224.100.0	43.224.103.255	1024
43.224.160.0	43.224.163.255	1024
43.224.176.0	43.224.179.255	1024
43.224.184.0	43.224.187.255	1024
43.240.0.0	43.240.3.255	1024
43.240.48.0	43.240.51.255	1024
43.240.84.0	43.240.87.255	1024
43.241.48.0	43.241.51.255	1024
43.241.112.0	43.241.115.255	1024
43.241.196.0	43.241.199.255	1024
43.242.180.0	43.242.183.255	1024
43.242.204.0	43.242.207.255	1024
43.242.252.0	43.242.255.255	1024
43.243.24.0	43.243.27.255	1024
43.243.88.0	43.243.91.255	1024
43.243.128.0	43.243.131.255	1024
43.243.136.0	43.243.139.255	1024
43.243.156.0	43.243.159.255	1024
43.243.168.0	43.243.171.255	1024
43.243.180.0	43.243.183.255	1024
43.243.188.0	43.243.191.255	1024
43.243.244.0	43.243.247.255	1024
43.247.68.0	43.247.71.255	1024
43.247.76.0	43.247.79.255	1024
43.248.20.0	43.248.23.255	1024
43.248.28.0	43.248.31.255	1024
43.248.48.0	43.248.51.255	1024
43.248.56.0	43.248.59.255	1024
43.248.244.0	43.248.247.255	1024
43.249.24.0	43.249.27.255	1024
43.249.120.0	43.249.123.255	1024
43.249.192.0	43.249.195.255	1024
43.249.236.0	43.249.239.255	1024
43.250.4.0	43.250.7.255	1024
43.250.72.0	43.250.75.255	1024
43.250.128.0	43.250.131.255	1024
43.250.160.0	43.250.163.255	1024
43.250.200.0	43.250.203.255	1024
43.250.236.0	43.250.239.255	1024
43.250.244.0	43.250.247.255	1024
43.251.36.0	43.251.39.255	1024
43.251.116.0	43.251.119.255	1024
43.251.192.0	43.251.195.255	1024
43.251.244.0	43.251.247.255	1024
43.252.40.0	43.252.43.255	1024
43.252.48.0	43.252.51.255	1024
43.252.56.0	43.252.59.255	1024
43.252.224.0	43.252.227.255	1024
43.254.24.0	43.254.27.255	1024
43.254.36.0	43.254.39.255	1024
43.254.44.0	43.254.47.255	1024
43.254.52.0	43.254.55.255	1024
43.254.64.0	43.254.67.255	1024
43.254.72.0	43.254.75.255	1024
43.254.128.0	43.254.131.255	1024
43.254.208.0	43.254.211.255	1024
43.255.16.0	43.255.19.255	1024
43.255.48.0	43.255.51.255	1024
43.255.84.0	43.255.87.255	1024
43.255.96.0	43.255.99.255	1024
43.255.108.0	43.255.111.255	1024
43.255.144.0	43.255.147.255	1024
43.255.168.0	43.255.171.255	1024
43.255.176.0	43.255.179.255	1024
43.255.184.0	43.255.187.255	1024
43.255.192.0	43.255.195.255	1024
43.255.244.0	43.255.247.255	1024
101.0.0.0	101.0.3.255	1024
101.1.0.0	101.1.3.255	1024
101.2.172.0	101.2.175.255	1024
101.50.56.0	101.50.59.255	1024
101.53.100.0	101.53.103.255	1024
101.128.0.0	101.128.3.255	1024
101.251.0.0	101.251.3.255	1024
103.1.8.0	103.1.11.255	1024
103.1.72.0	103.1.75.255	1024
103.1.88.0	103.1.91.255	1024
103.1.168.0	103.1.171.255	1024
103.2.108.0	103.2.111.255	1024
103.2.156.0	103.2.159.255	1024
103.2.164.0	103.2.167.255	1024
103.4.56.0	103.4.59.255	1024
103.4.168.0	103.4.171.255	1024
103.4.184.0	103.4.187.255	1024
103.5.36.0	103.5.39.255	1024
103.5.252.0	103.5.255.255	1024
103.6.76.0	103.6.79.255	1024
103.6.220.0	103.6.223.255	1024
103.7.4.0	103.7.7.255	1024
103.7.28.0	103.7.31.255	1024
103.8.32.0	103.8.35.255	1024
103.8.52.0	103.8.55.255	1024
103.8.108.0	103.8.111.255	1024
103.8.156.0	103.8.159.255	1024
103.8.220.0	103.8.223.255	1024
103.9.152.0	103.9.155.255	1024
103.10.16.0	103.10.19.255	1024
103.10.84.0	103.10.87.255	1024
103.10.140.0	103.10.143.255	1024
103.11.180.0	103.11.183.255	1024
103.12.32.0	103.12.35.255	1024
103.12.68.0	103.12.71.255	1024
103.12.136.0	103.12.139.255	1024
103.12.184.0	103.12.187.255	1024
103.12.232.0	103.12.235.255	1024
103.13.124.0	103.13.127.255	1024
103.13.144.0	103.13.147.255	1024
103.13.196.0	103.13.199.255	1024
103.13.244.0	103.13.247.255	1024
103.14.84.0	103.14.87.255	1024
103.14.112.0	103.14.115.255	1024
103.14.156.0	103.14.159.255	1024
103.14.240.0	103.14.243.255	1024
103.15.16.0	103.15.19.255	1024
103.15.96.0	103.15.99.255	1024
103.15.200.0	103.15.203.255	1024
103.16.52.0	103.16.55.255	1024
103.16.108.0	103.16.111.255	1024
103.16.124.0	103.16.127.255	1024
103.17.40.0	103.17.43.255	1024
103.17.120.0	103.17.123.255	1024
103.17.160.0	103.17.163.255	1024
103.17.204.0	103.17.207.255	1024
103.17.228.0	103.17.231.255	1024
103.18.192.0	103.18.195.255	1024
103.18.224.0	103.18.227.255	1024
103.19.12.0	103.19.15.255	1024
103.19.232.0	103.19.235.255	1024
103.20.12.0	103.20.15.255	1024
103.20.32.0	103.20.35.255	1024
103.20.112.0	103.20.115.255	1024
103.20.128.0	103.20.131.255	1024
103.20.160.0	103.20.163.255	1024
103.20.248.0	103.20.251.255	1024
103.21.176.0	103.21.179.255	1024
103.21.208.0	103.21.211.255	1024
103.21.240.0	103.21.243.255	1024
103.22.188.0	103.22.191.255	1024
103.22.228.0	103.22.231.255	1024
103.22.252.0	103.22.255.255	1024
103.23.8.0	103.23.11.255	1024
103.23.56.0	103.23.59.255	1024
103.23.176.0	103.23.179.255	1024
103.23.228.0	103.23.231.255	1024
103.24.116.0	103.24.119.255	1024
103.24.128.0	103.24.131.255	1024
103.24.144.0	103.24.147.255	1024
103.24.176.0	103.24.179.255	1024
103.24.184.0	103.24.187.255	1024
103.24.220.0	103.24.223.255	1024
103.24.228.0	103.24.231.255	1024
103.25.48.0	103.25.51.255	1024
103.25.148.0	103.25.151.255	1024
103.25.156.0	103.25.159.255	1024
103.25.216.0	103.25.219.255	1024
103.26.0.0	103.26.3.255	1024
103.26.64.0	103.26.67.255	1024
103.26.228.0	103.26.231.255	1024
103.26.240.0	103.26.243.255	1024
103.27.4.0	103.27.7.255	1024
103.27.12.0	103.27.15.255	1024
103.27.24.0	103.27.27.255	1024
103.27.56.0	103.27.59.255	1024
103.27.96.0	103.27.99.255	1024
103.27.208.0	103.27.211.255	1024
103.27.240.0	103.27.243.255	1024
103.28.204.0	103.28.207.255	1024
103.29.16.0	103.29.19.255	1024
103.30.20.0	103.30.23.255	1024
103.30.96.0	103.30.99.255	1024
103.30.148.0	103.30.151.255	1024
103.30.200.0	103.30.203.255	1024
103.30.216.0	103.30.219.255	1024
103.30.228.0	103.30.231.255	1024
103.30.236.0	103.30.239.255	1024
103.31.0.0	103.31.3.255	1024
103.31.148.0	103.31.151.255	1024
103.31.160.0	103.31.163.255	1024
103.31.168.0	103.31.171.255	1024
103.31.200.0	103.31.203.255	1024
103.36.20.0	103.36.23.255	1024
103.36.28.0	103.36.31.255	1024
103.36.36.0	103.36.39.255	1024
103.36.72.0	103.36.75.255	1024
103.36.96.0	103.36.99.255	1024
103.37.0.0	103.37.3.255	1024
103.37.24.0	103.37.27.255	1024
103.37.44.0	103.37.47.255	1024
103.37.72.0	103.37.75.255	1024
103.37.124.0	103.37.127.255	1024
103.38.32.0	103.38.35.255	1024
103.38.56.0	103.38.59.255	1024
103.38.76.0	103.38.79.255	1024
103.38.84.0	103.38.87.255	1024
103.38.116.0	103.38.119.255	1024
103.38.132.0	103.38.135.255	1024
103.38.140.0	103.38.143.255	1024
103.38.252.0	103.38.255.255	1024
103.39.16.0	103.39.19.255	1024
103.39.64.0	103.39.67.255	1024
103.39.88.0	103.39.91.255	1024
103.39.144.0	103.39.147.255	1024
103.40.88.0	103.40.91.255	1024
103.40.100.0	103.40.103.255	1024
103.40.112.0	103.40.115.255	1024
103.40.192.0	103.40.195.255	1024
103.40.212.0	103.40.215.255	1024
103.40.220.0	103.40.223.255	1024
103.41.16.0	103.41.19.255	1024
103.41.52.0	103.41.55.255	1024
103.41.116.0	103.41.119.255	1024
103.41.140.0	103.41.143.255	1024
103.42.8.0	103.42.11.255	1024
103.42.76.0	103.42.79.255	1024
103.42.104.0	103.42.107.255	1024
103.42.180.0	103.42.183.255	1024
103.42.232.0	103.42.235.255	1024
103.43.16.0	103.43.19.255	1024
103.43.24.0	103.43.27.255	1024
103.43.84.0	103.43.87.255	1024
103.43.124.0	103.43.127.255	1024
103.43.132.0	103.43.135.255	1024
103.43.164.0	103.43.167.255	1024
103.43.184.0	103.43.187.255	1024
103.43.208.0	103.43.211.255	1024
103.224.60.0	103.224.63.255	1024
103.224.80.0	103.224.83.255	1024
103.225.84.0	103.225.87.255	1024
103.226.16.0	103.226.19.255	1024
103.226.40.0	103.226.43.255	1024
103.226.80.0	103.226.83.255	1024
103.226.116.0	103.226.119.255	1024
103.226.132.0	103.226.135.255	1024
103.226.156.0	103.226.159.255	1024
103.226.180.0	103.226.183.255	1024
103.226.196.0	103.226.199.255	1024
103.227.48.0	103.227.51.255	1024
103.227.100.0	103.227.103.255	1024
103.227.120.0	103.227.123.255	1024
103.227.196.0	103.227.199.255	1024
103.227.204.0	103.227.207.255	1024
103.227.212.0	103.227.215.255	1024
103.227.228.0	103.227.231.255	1024
103.228.12.0	103.228.15.255	1024
103.228.28.0	103.228.31.255	1024
103.228.68.0	103.228.71.255	1024
103.228.88.0	103.228.91.255	1024
103.228.128.0	103.228.131.255	1024
103.228.160.0	103.228.163.255	1024
103.228.176.0	103.228.179.255	1024
103.229.20.0	103.229.23.255	1024
103.229.136.0	103.229.139.255	1024
103.229.148.0	103.229.151.255	1024
103.229.172.0	103.229.175.255	1024
103.229.228.0	103.229.231.255	1024
103.230.0.0	103.230.3.255	1024
103.230.28.0	103.230.31.255	1024
103.230.96.0	103.230.99.255	1024
103.230.212.0	103.230.215.255	1024
103.230.236.0	103.230.239.255	1024
103.231.144.0	103.231.147.255	1024
103.231.244.0	103.231.247.255	1024
103.232.4.0	103.232.7.255	1024
103.232.144.0	103.232.147.255	1024
103.232.212.0	103.232.215.255	1024
103.233.4.0	103.233.7.255	1024
103.233.44.0	103.233.47.255	1024
103.233.52.0	103.233.55.255	1024
103.233.104.0	103.233.107.255	1024
103.233.128.0	103.233.131.255	1024
103.233.136.0	103.233.139.255	1024
103.233.228.0	103.233.231.255	1024
103.234.0.0	103.234.3.255	1024
103.234.20.0	103.234.23.255	1024
103.234.56.0	103.234.59.255	1024
103.234.172.0	103.234.175.255	1024
103.234.180.0	103.234.183.255	1024
103.235.16.0	103.235.19.255	1024
103.235.48.0	103.235.51.255	1024
103.235.184.0	103.235.187.255	1024
103.235.192.0	103.235.195.255	1024
103.235.200.0	103.235.203.255	1024
103.237.68.0	103.237.71.255	1024
103.237.88.0	103.237.91.255	1024
103.237.152.0	103.237.155.255	1024
103.238.132.0	103.238.135.255	1024
103.238.196.0	103.238.199.255	1024
103.238.204.0	103.238.207.255	1024
103.239.68.0	103.239.71.255	1024
103.239.96.0	103.239.99.255	1024
103.239.224.0	103.239.227.255	1024
103.239.244.0	103.239.247.255	1024
103.240.16.0	103.240.19.255	1024
103.240.36.0	103.240.39.255	1024
103.240.72.0	103.240.75.255	1024
103.240.84.0	103.240.87.255	1024
103.240.124.0	103.240.127.255	1024
103.240.156.0	103.240.159.255	1024
103.240.172.0	103.240.175.255	1024
103.240.244.0	103.240.247.255	1024
103.241.12.0	103.241.15.255	1024
103.241.72.0	103.241.75.255	1024
103.241.160.0	103.241.163.255	1024
103.241.220.0	103.241.223.255	1024
103.242.8.0	103.242.11.255	1024
103.242.64.0	103.242.67.255	1024
103.242.160.0	103.242.163.255	1024
103.242.200.0	103.242.203.255	1024
103.242.212.0	103.242.215.255	1024
103.242.220.0	103.242.223.255	1024
103.242.240.0	103.242.243.255	1024
103.243.24.0	103.243.27.255	1024
103.243.136.0	103.243.139.255	1024
103.243.252.0	103.243.255.255	1024
103.244.16.0	103.244.19.255	1024
103.244.164.0	103.244.167.255	1024
103.244.232.0	103.244.235.255	1024
103.244.252.0	103.244.255.255	1024
103.245.52.0	103.245.55.255	1024
103.245.60.0	103.245.63.255	1024
103.245.80.0	103.245.83.255	1024
103.246.132.0	103.246.135.255	1024
103.247.200.0	103.247.203.255	1024
103.247.212.0	103.247.215.255	1024
103.248.64.0	103.248.67.255	1024
103.248.100.0	103.248.103.255	1024
103.248.124.0	103.248.127.255	1024
103.248.152.0	103.248.155.255	1024
103.248.168.0	103.248.171.255	1024
103.248.192.0	103.248.195.255	1024
103.248.212.0	103.248.215.255	1024
103.249.12.0	103.249.15.255	1024
103.249.52.0	103.249.55.255	1024
103.249.128.0	103.249.131.255	1024
103.249.136.0	103.249.139.255	1024
103.249.144.0	103.249.147.255	1024
103.249.244.0	103.249.247.255	1024
103.249.252.0	103.249.255.255	1024
103.250.32.0	103.250.35.255	1024
103.250.104.0	103.250.107.255	1024
103.250.124.0	103.250.127.255	1024
103.250.180.0	103.250.183.255	1024
103.250.192.0	103.250.195.255	1024
103.250.216.0	103.250.219.255	1024
103.250.224.0	103.250.227.255	1024
103.250.236.0	103.250.239.255	1024
103.251.32.0	103.251.35.255	1024
103.251.84.0	103.251.87.255	1024
103.251.96.0	103.251.99.255	1024
103.251.160.0	103.251.163.255	1024
103.251.204.0	103.251.207.255	1024
103.252.28.0	103.252.31.255	1024
103.252.36.0	103.252.39.255	1024
103.252.64.0	103.252.67.255	1024
103.252.104.0	103.252.107.255	1024
103.252.172.0	103.252.175.255	1024
103.252.232.0	103.252.235.255	1024
103.252.248.0	103.252.251.255	1024
103.253.4.0	103.253.7.255	1024
103.253.60.0	103.253.63.255	1024
103.253.204.0	103.253.207.255	1024
103.253.232.0	103.253.235.255	1024
103.254.8.0	103.254.11.255	1024
103.254.20.0	103.254.23.255	1024
103.254.112.0	103.254.115.255	1024
103.254.148.0	103.254.151.255	1024
103.254.176.0	103.254.179.255	1024
103.254.188.0	103.254.191.255	1024
103.254.220.0	103.254.223.255	1024
103.255.68.0	103.255.71.255	1024
103.255.184.0	103.255.187.255	1024
103.255.200.0	103.255.203.255	1024
103.255.228.0	103.255.231.255	1024
110.76.156.0	110.76.159.255	1024
110.76.184.0	110.76.187.255	1024
111.223.240.0	111.223.243.255	1024
111.223.248.0	111.223.251.255	1024
113.59.224.0	113.59.227.255	1024
113.197.100.0	113.197.103.255	1024
113.212.100.0	113.212.103.255	1024
123.176.60.0	123.176.63.255	1024
150.129.152.0	150.129.155.255	1024
150.129.192.0	150.129.195.255	1024
150.129.216.0	150.129.219.255	1024
150.129.252.0	150.129.255.255	1024
150.242.28.0	150.242.31.255	1024
150.242.212.0	150.242.215.255	1024
150.242.224.0	150.242.227.255	1024
163.47.4.0	163.47.7.255	1024
163.53.188.0	163.53.191.255	1024
163.53.220.0	163.53.223.255	1024
163.53.240.0	163.53.243.255	1024
180.189.148.0	180.189.151.255	1024
183.78.180.0	183.78.183.255	1024
183.81.180.0	183.81.183.255	1024
183.91.128.0	183.91.131.255	1024
202.0.176.0	202.0.179.255	1024
202.4.252.0	202.4.255.255	1024
202.8.2.0	202.8.5.255	1024
202.9.51.0	202.9.54.255	1024
202.14.73.0	202.14.76.255	1024
202.20.87.0	202.20.90.255	1024
202.38.0.0	202.38.3.255	1024
202.38.140.0	202.38.143.255	1024
202.38.158.0	202.38.161.255	1024
202.43.76.0	202.43.79.255	1024
202.59.212.0	202.59.215.255	1024
202.62.112.0	202.62.115.255	1024
202.63.248.0	202.63.251.255	1024
202.67.0.0	202.67.3.255	1024
202.69.4.0	202.69.7.255	1024
202.73.128.0	202.73.131.255	1024
202.75.252.0	202.75.255.255	1024
202.76.252.0	202.76.255.255	1024
202.77.92.0	202.77.95.255	1024
202.79.248.0	202.79.251.255	1024
202.81.0.0	202.81.3.255	1024
202.86.252.0	202.86.255.255	1024
202.90.0.0	202.90.3.255	1024
202.91.0.0	202.91.3.255	1024
202.91.128.0	202.91.131.255	1024
202.93.252.0	202.93.255.255	1024
202.94.92.0	202.94.95.255	1024
202.143.4.0	202.143.7.255	1024
202.146.188.0	202.146.191.255	1024
202.150.56.0	202.150.59.255	1024
202.153.0.0	202.153.3.255	1024
202.172.0.0	202.172.3.255	1024
202.173.0.0	202.173.3.255	1024
203.0.4.0	203.0.7.255	1024
203.1.4.0	203.1.7.255	1024
203.3.96.0	203.3.99.255	1024
203.4.208.0	203.4.211.255	1024
203.11.76.0	203.11.79.255	1024
203.11.84.0	203.11.87.255	1024
203.11.100.0	203.11.103.255	1024
203.11.136.0	203.11.139.255	1024
203.11.180.0	203.11.183.255	1024
203.11.208.0	203.11.211.255	1024
203.12.240.0	203.12.243.255	1024
203.13.92.0	203.13.95.255	1024
203.14.24.0	203.14.27.255	1024
203.15.156.0	203.15.159.255	1024
203.18.72.0	203.18.75.255	1024
203.19.228.0	203.19.231.255	1024
203.21.96.0	203.21.99.255	1024
203.22.92.0	203.22.95.255	1024
203.23.92.0	203.23.95.255	1024
203.23.204.0	203.23.207.255	1024
203.29.120.0	203.29.123.255	1024
203.34.204.0	203.34.207.255	1024
203.56.82.0	203.56.85.255	1024
203.62.228.0	203.62.231.255	1024
203.76.160.0	203.76.163.255	1024
203.76.168.0	203.76.171.255	1024
203.77.180.0	203.77.183.255	1024
203.83.0.0	203.83.3.255	1024
203.89.0.0	203.89.3.255	1024
203.89.136.0	203.89.139.255	1024
203.90.0.0	203.90.3.255	1024
203.90.8.0	203.90.11.255	1024
203.92.0.0	203.92.3.255	1024
203.114.244.0	203.114.247.255	1024
203.118.248.0	203.118.251.255	1024
203.119.80.0	203.119.83.255	1024
203.149.92.0	203.149.95.255	1024
203.153.0.0	203.153.3.255	1024
203.161.0.0	203.161.3.255	1024
203.171.0.0	203.171.3.255	1024
203.189.112.0	203.189.115.255	1024
203.202.236.0	203.202.239.255	1024
223.27.184.0	223.27.187.255	1024
223.255.236.0	223.255.239.255	1024
1.0.1.0	1.0.3.255	768
1.2.0.0	1.2.2.255	768
101.102.100.0	101.102.102.255	768
202.6.87.0	202.6.89.255	768
202.9.57.0	202.9.59.255	768
202.12.17.0	202.12.19.255	768
202.14.157.0	202.14.159.255	768
202.14.169.0	202.14.171.255	768
202.14.225.0	202.14.227.255	768
202.40.143.0	202.40.145.255	768
202.41.11.0	202.41.13.255	768
202.45.0.0	202.45.2.255	768
202.46.16.0	202.46.18.255	768
202.165.239.0	202.165.241.255	768
203.0.45.0	203.0.47.255	768
203.0.81.0	203.0.83.255	768
203.0.150.0	203.0.152.255	768
203.1.65.0	203.1.67.255	768
203.4.132.0	203.4.134.255	768
203.5.7.0	203.5.9.255	768
203.5.180.0	203.5.182.255	768
203.5.188.0	203.5.190.255	768
203.8.190.0	203.8.192.255	768
203.8.197.0	203.8.199.255	768
203.9.70.0	203.9.72.255	768
203.9.75.0	203.9.77.255	768
203.11.141.0	203.11.143.255	768
203.15.20.0	203.15.22.255	768
203.15.87.0	203.15.89.255	768
203.16.49.0	203.16.51.255	768
203.18.2.0	203.18.4.255	768
203.18.48.0	203.18.50.255	768
203.18.131.0	203.18.133.255	768
203.19.44.0	203.19.46.255	768
203.20.117.0	203.20.119.255	768
203.21.0.0	203.21.2.255	768
203.23.61.0	203.23.63.255	768
203.24.79.0	203.24.81.255	768
203.24.84.0	203.24.86.255	768
203.25.19.0	203.25.21.255	768
203.25.153.0	203.25.155.255	768
203.26.55.0	203.26.57.255	768
203.27.121.0	203.27.123.255	768
203.28.33.0	203.28.35.255	768
203.32.203.0	203.32.205.255	768
203.33.202.0	203.33.204.255	768
203.33.224.0	203.33.226.255	768
203.55.2.0	203.55.4.255	768
203.56.208.0	203.56.210.255	768
203.57.69.0	203.57.71.255	768
203.57.253.0	203.57.255.255	768
203.110.232.0	203.110.234.255	768
36.37.36.0	36.37.37.255	512
45.64.112.0	45.64.113.255	512
49.128.2.0	49.128.3.255	512
103.25.8.0	103.25.9.255	512
103.248.0.0	103.248.1.255	512
202.0.100.0	202.0.101.255	512
202.0.122.0	202.0.123.255	512
202.3.128.0	202.3.129.255	512
202.6.6.0	202.6.7.255	512
202.6.66.0	202.6.67.255	512
202.6.72.0	202.6.73.255	512
202.6.92.0	202.6.93.255	512
202.6.110.0	202.6.111.255	512
202.9.34.0	202.9.35.255	512
202.9.48.0	202.9.49.255	512
202.12.1.0	202.12.2.255	512
202.12.84.0	202.12.85.255	512
202.12.98.0	202.12.99.255	512
202.14.64.0	202.14.65.255	512
202.14.78.0	202.14.79.255	512
202.14.104.0	202.14.105.255	512
202.14.108.0	202.14.109.255	512
202.14.114.0	202.14.115.255	512
202.14.118.0	202.14.119.255	512
202.14.124.0	202.14.125.255	512
202.14.135.0	202.14.136.255	512
202.14.184.0	202.14.185.255	512
202.14.208.0	202.14.209.255	512
202.14.219.0	202.14.220.255	512
202.14.222.0	202.14.223.255	512
202.20.94.0	202.20.95.255	512
202.21.131.0	202.21.132.255	512
202.21.141.0	202.21.142.255	512
202.21.147.0	202.21.148.255	512
202.27.136.0	202.27.137.255	512
202.38.146.0	202.38.147.255	512
202.38.176.0	202.38.177.255	512
202.40.4.0	202.40.5.255	512
202.40.135.0	202.40.136.255	512
202.40.155.0	202.40.156.255	512
202.40.158.0	202.40.159.255	512
202.41.8.0	202.41.9.255	512
202.41.130.0	202.41.131.255	512
202.44.132.0	202.44.133.255	512
202.44.146.0	202.44.147.255	512
202.46.20.0	202.46.21.255	512
202.47.82.0	202.47.83.255	512
202.47.130.0	202.47.131.255	512
202.59.232.0	202.59.233.255	512
202.74.254.0	202.74.255.255	512
203.0.10.0	203.0.11.255	512
203.0.42.0	203.0.43.255	512
203.0.90.0	203.0.91.255	512
203.0.96.0	203.0.97.255	512
203.0.114.0	203.0.115.255	512
203.1.26.0	203.1.27.255	512
203.1.70.0	203.1.71.255	512
203.1.76.0	203.1.77.255	512
203.1.253.0	203.1.254.255	512
203.2.126.0	203.2.127.255	512
203.2.180.0	203.2.181.255	512
203.2.196.0	203.2.197.255	512
203.2.214.0	203.2.215.255	512
203.2.226.0	203.2.227.255	512
203.2.236.0	203.2.237.255	512
203.3.72.0	203.3.73.255	512
203.4.174.0	203.4.175.255	512
203.4.230.0	203.4.231.255	512
203.5.4.0	203.5.5.255	512
203.5.21.0	203.5.22.255	512
203.5.46.0	203.5.47.255	512
203.5.60.0	203.5.61.255	512
203.5.114.0	203.5.115.255	512
203.5.185.0	203.5.186.255	512
203.5.214.0	203.5.215.255	512
203.5.218.0	203.5.219.255	512
203.6.138.0	203.6.139.255	512
203.6.150.0	203.6.151.255	512
203.6.248.0	203.6.249.255	512
203.7.138.0	203.7.139.255	512
203.7.150.0	203.7.151.255	512
203.7.192.0	203.7.193.255	512
203.8.86.0	203.8.87.255	512
203.8.110.0	203.8.111.255	512
203.8.166.0	203.8.167.255	512
203.8.186.0	203.8.187.255	512
203.9.36.0	203.9.37.255	512
203.10.74.0	203.10.75.255	512
203.12.65.0	203.12.66.255	512
203.12.70.0	203.12.71.255	512
203.12.100.0	203.12.101.255	512
203.13.44.0	203.13.45.255	512
203.13.224.0	203.13.225.255	512
203.14.61.0	203.14.62.255	512
203.14.114.0	203.14.115.255	512
203.14.194.0	203.14.195.255	512
203.15.130.0	203.15.131.255	512
203.16.12.0	203.16.13.255	512
203.16.161.0	203.16.162.255	512
203.16.186.0	203.16.187.255	512
203.17.74.0	203.17.75.255	512
203.17.88.0	203.17.89.255	512
203.17.190.0	203.17.191.255	512
203.18.80.0	203.18.81.255	512
203.18.100.0	203.18.101.255	512
203.19.60.0	203.19.61.255	512
203.19.178.0	203.19.179.255	512
203.19.248.0	203.19.249.255	512
203.20.40.0	203.20.41.255	512
203.20.84.0	203.20.85.255	512
203.20.106.0	203.20.107.255	512
203.20.126.0	203.20.127.255	512
203.21.33.0	203.21.34.255	512
203.21.136.0	203.21.137.255	512
203.22.28.0	203.22.29.255	512
203.22.122.0	203.22.123.255	512
203.22.242.0	203.22.243.255	512
203.22.245.0	203.22.246.255	512
203.22.252.0	203.22.253.255	512
203.23.140.0	203.23.141.255	512
203.23.186.0	203.23.187.255	512
203.23.197.0	203.23.198.255	512
203.24.111.0	203.24.112.255	512
203.24.122.0	203.24.123.255	512
203.24.152.0	203.24.153.255	512
203.24.186.0	203.24.187.255	512
203.24.212.0	203.24.213.255	512
203.25.64.0	203.25.65.255	512
203.25.99.0	203.25.100.255	512
203.25.174.0	203.25.175.255	512
203.25.199.0	203.25.200.255	512
203.25.202.0	203.25.203.255	512
203.25.235.0	203.25.236.255	512
203.26.49.0	203.26.50.255	512
203.26.102.0	203.26.103.255	512
203.26.115.0	203.26.116.255	512
203.26.143.0	203.26.144.255	512
203.26.148.0	203.26.149.255	512
203.26.158.0	203.26.159.255	512
203.26.202.0	203.26.203.255	512
203.27.15.0	203.27.16.255	512
203.27.22.0	203.27.23.255	512
203.27.65.0	203.27.66.255	512
203.28.43.0	203.28.44.255	512
203.28.73.0	203.28.74.255	512
203.28.169.0	203.28.170.255	512
203.28.178.0	203.28.179.255	512
203.28.226.0	203.28.227.255	512
203.29.8.0	203.29.9.255	512
203.29.13.0	203.29.14.255	512
203.29.182.0	203.29.183.255	512
203.29.189.0	203.29.190.255	512
203.29.233.0	203.29.234.255	512
203.29.254.0	203.29.255.255	512
203.30.16.0	203.30.17.255	512
203.30.232.0	203.30.233.255	512
203.30.240.0	203.30.241.255	512
203.30.250.0	203.30.251.255	512
203.31.45.0	203.31.46.255	512
203.31.54.0	203.31.55.255	512
203.31.105.0	203.31.106.255	512
203.31.108.0	203.31.109.255	512
203.31.222.0	203.31.223.255	512
203.31.248.0	203.31.249.255	512
203.32.48.0	203.32.49.255	512
203.32.68.0	203.32.69.255	512
203.32.84.0	203.32.85.255	512
203.32.186.0	203.32.187.255	512
203.33.63.0	203.33.64.255	512
203.33.67.0	203.33.68.255	512
203.33.158.0	203.33.159.255	512
203.33.206.0	203.33.207.255	512
203.33.214.0	203.33.215.255	512
203.34.48.0	203.34.49.255	512
203.34.56.0	203.34.57.255	512
203.34.152.0	203.34.153.255	512
203.34.161.0	203.34.162.255	512
203.55.109.0	203.55.110.255	512
203.55.116.0	203.55.117.255	512
203.55.128.0	203.55.129.255	512
203.55.146.0	203.55.147.255	512
203.55.218.0	203.55.219.255	512
203.56.68.0	203.56.69.255	512
203.56.172.0	203.56.173.255	512
203.56.227.0	203.56.228.255	512
203.57.5.0	203.57.6.255	512
203.57.12.0	203.57.13.255	512
203.57.246.0	203.57.247.255	512
203.80.4.0	203.80.5.255	512
203.82.0.0	203.82.1.255	512
203.86.254.0	203.86.255.255	512
203.148.86.0	203.148.87.255	512
203.170.58.0	203.170.59.255	512
203.189.0.0	203.189.1.255	512
203.189.6.0	203.189.7.255	512
203.191.0.0	203.191.1.255	512
223.255.252.0	223.255.253.255	512
1.1.0.0	1.1.0.255	256
39.0.0.0	39.0.0.255	256
49.128.0.0	49.128.0.255	256
91.234.36.0	91.234.36.255	256
101.101.100.0	101.101.100.255	256
103.10.111.0	103.10.111.255	256
103.245.23.0	103.245.23.255	256
103.254.196.0	103.254.196.255	256
106.0.0.0	106.0.0.255	256
192.124.154.0	192.124.154.255	256
192.188.170.0	192.188.170.255	256
202.6.103.0	202.6.103.255	256
202.6.108.0	202.6.108.255	256
202.6.114.0	202.6.114.255	256
202.8.0.0	202.8.0.255	256
202.8.12.0	202.8.12.255	256
202.8.24.0	202.8.24.255	256
202.8.77.0	202.8.77.255	256
202.9.32.0	202.9.32.255	256
202.12.72.0	202.12.72.255	256
202.12.96.0	202.12.96.255	256
202.12.106.0	202.12.106.255	256
202.12.111.0	202.12.111.255	256
202.12.116.0	202.12.116.255	256
202.14.69.0	202.14.69.255	256
202.14.88.0	202.14.88.255	256
202.14.97.0	202.14.97.255	256
202.14.111.0	202.14.111.255	256
202.14.127.0	202.14.127.255	256
202.14.129.0	202.14.129.255	256
202.14.149.0	202.14.149.255	256
202.14.151.0	202.14.151.255	256
202.14.176.0	202.14.176.255	256
202.14.213.0	202.14.213.255	256
202.14.231.0	202.14.231.255	256
202.14.246.0	202.14.246.255	256
202.14.251.0	202.14.251.255	256
202.20.66.0	202.20.66.255	256
202.20.79.0	202.20.79.255	256
202.20.114.0	202.20.114.255	256
202.20.117.0	202.20.117.255	256
202.20.120.0	202.20.120.255	256
202.20.125.0	202.20.125.255	256
202.20.127.0	202.20.127.255	256
202.21.156.0	202.21.156.255	256
202.40.7.0	202.40.7.255	256
202.40.15.0	202.40.15.255	256
202.40.140.0	202.40.140.255	256
202.40.150.0	202.40.150.255	256
202.40.162.0	202.40.162.255	256
202.41.128.0	202.41.128.255	256
202.41.192.0	202.41.192.255	256
202.44.67.0	202.44.67.255	256
202.44.74.0	202.44.74.255	256
202.44.129.0	202.44.129.255	256
202.46.128.0	202.46.128.255	256
202.47.126.0	202.47.126.255	256
202.47.128.0	202.47.128.255	256
202.59.0.0	202.59.0.255	256
202.59.236.0	202.59.236.255	256
202.62.255.0	202.62.255.255	256
202.86.249.0	202.86.249.255	256
202.90.196.0	202.90.196.255	256
202.122.132.0	202.122.132.255	256
202.134.58.0	202.134.58.255	256
202.137.231.0	202.137.231.255	256
202.162.67.0	202.162.67.255	256
202.162.75.0	202.162.75.255	256
202.165.243.0	202.165.243.255	256
202.165.245.0	202.165.245.255	256
202.171.235.0	202.171.235.255	256
202.191.0.0	202.191.0.255	256
203.0.18.0	203.0.18.255	256
203.0.24.0	203.0.24.255	256
203.0.122.0	203.0.122.255	256
203.0.128.0	203.0.128.255	256
203.0.137.0	203.0.137.255	256
203.0.142.0	203.0.142.255	256
203.0.144.0	203.0.144.255	256
203.0.146.0	203.0.146.255	256
203.0.148.0	203.0.148.255	256
203.0.177.0	203.0.177.255	256
203.0.224.0	203.0.224.255	256
203.1.18.0	203.1.18.255	256
203.1.90.0	203.1.90.255	256
203.1.108.0	203.1.108.255	256
203.2.73.0	203.2.73.255	256
203.2.140.0	203.2.140.255	256
203.2.150.0	203.2.150.255	256
203.2.209.0	203.2.209.255	256
203.2.229.0	203.2.229.255	256
203.3.68.0	203.3.68.255	256
203.3.75.0	203.3.75.255	256
203.3.105.0	203.3.105.255	256
203.3.123.0	203.3.123.255	256
203.3.135.0	203.3.135.255	256
203.3.139.0	203.3.139.255	256
203.3.143.0	203.3.143.255	256
203.4.180.0	203.4.180.255	256
203.4.186.0	203.4.186.255	256
203.4.205.0	203.4.205.255	256
203.4.227.0	203.4.227.255	256
203.5.11.0	203.5.11.255	256
203.5.44.0	203.5.44.255	256
203.5.118.0	203.5.118.255	256
203.5.120.0	203.5.120.255	256
203.5.172.0	203.5.172.255	256
203.5.195.0	203.5.195.255	256
203.6.131.0	203.6.131.255	256
203.6.136.0	203.6.136.255	256
203.6.142.0	203.6.142.255	256
203.6.157.0	203.6.157.255	256
203.6.159.0	203.6.159.255	256
203.7.129.0	203.7.129.255	256
203.7.147.0	203.7.147.255	256
203.7.158.0	203.7.158.255	256
203.7.200.0	203.7.200.255	256
203.8.0.0	203.8.0.255	256
203.8.8.0	203.8.8.255	256
203.8.70.0	203.8.70.255	256
203.8.82.0	203.8.82.255	256
203.8.91.0	203.8.91.255	256
203.8.115.0	203.8.115.255	256
203.8.169.0	203.8.169.255	256
203.8.173.0	203.8.173.255	256
203.8.184.0	203.8.184.255	256
203.8.203.0	203.8.203.255	256
203.8.217.0	203.8.217.255	256
203.8.220.0	203.8.220.255	256
203.9.32.0	203.9.32.255	256
203.9.57.0	203.9.57.255	256
203.9.63.0	203.9.63.255	256
203.9.65.0	203.9.65.255	256
203.9.108.0	203.9.108.255	256
203.9.158.0	203.9.158.255	256
203.10.34.0	203.10.34.255	256
203.10.56.0	203.10.56.255	256
203.10.95.0	203.10.95.255	256
203.10.125.0	203.10.125.255	256
203.11.70.0	203.11.70.255	256
203.11.82.0	203.11.82.255	256
203.11.109.0	203.11.109.255	256
203.11.117.0	203.11.117.255	256
203.11.122.0	203.11.122.255	256
203.11.126.0	203.11.126.255	256
203.12.16.0	203.12.16.255	256
203.12.19.0	203.12.19.255	256
203.12.24.0	203.12.24.255	256
203.12.57.0	203.12.57.255	256
203.12.103.0	203.12.103.255	256
203.12.114.0	203.12.114.255	256
203.12.118.0	203.12.118.255	256
203.12.130.0	203.12.130.255	256
203.12.137.0	203.12.137.255	256
203.12.211.0	203.12.211.255	256
203.12.219.0	203.12.219.255	256
203.12.226.0	203.12.226.255	256
203.13.18.0	203.13.18.255	256
203.13.24.0	203.13.24.255	256
203.13.173.0	203.13.173.255	256
203.13.227.0	203.13.227.255	256
203.13.233.0	203.13.233.255	256
203.14.33.0	203.14.33.255	256
203.14.56.0	203.14.56.255	256
203.14.104.0	203.14.104.255	256
203.14.118.0	203.14.118.255	256
203.14.162.0	203.14.162.255	256
203.14.214.0	203.14.214.255	256
203.14.231.0	203.14.231.255	256
203.14.246.0	203.14.246.255	256
203.15.105.0	203.15.105.255	256
203.15.149.0	203.15.149.255	256
203.15.151.0	203.15.151.255	256
203.15.174.0	203.15.174.255	256
203.15.227.0	203.15.227.255	256
203.15.246.0	203.15.246.255	256
203.16.10.0	203.16.10.255	256
203.16.27.0	203.16.27.255	256
203.16.38.0	203.16.38.255	256
203.16.58.0	203.16.58.255	256
203.16.133.0	203.16.133.255	256
203.16.228.0	203.16.228.255	256
203.16.238.0	203.16.238.255	256
203.16.240.0	203.16.240.255	256
203.16.245.0	203.16.245.255	256
203.17.2.0	203.17.2.255	256
203.17.18.0	203.17.18.255	256
203.17.28.0	203.17.28.255	256
203.17.39.0	203.17.39.255	256
203.17.56.0	203.17.56.255	256
203.17.136.0	203.17.136.255	256
203.17.164.0	203.17.164.255	256
203.17.187.0	203.17.187.255	256
203.17.231.0	203.17.231.255	256
203.17.233.0	203.17.233.255	256
203.17.248.0	203.17.248.255	256
203.17.255.0	203.17.255.255	256
203.18.7.0	203.18.7.255	256
203.18.31.0	203.18.31.255	256
203.18.37.0	203.18.37.255	256
203.18.52.0	203.18.52.255	256
203.18.87.0	203.18.87.255	256
203.18.105.0	203.18.105.255	256
203.18.107.0	203.18.107.255	256
203.18.110.0	203.18.110.255	256
203.18.129.0	203.18.129.255	256
203.18.144.0	203.18.144.255	256
203.18.153.0	203.18.153.255	256
203.18.199.0	203.18.199.255	256
203.18.208.0	203.18.208.255	256
203.18.211.0	203.18.211.255	256
203.18.215.0	203.18.215.255	256
203.19.18.0	203.19.18.255	256
203.19.24.0	203.19.24.255	256
203.19.30.0	203.19.30.255	256
203.19.41.0	203.19.41.255	256
203.19.58.0	203.19.58.255	256
203.19.64.0	203.19.64.255	256
203.19.68.0	203.19.68.255	256
203.19.72.0	203.19.72.255	256
203.19.101.0	203.19.101.255	256
203.19.111.0	203.19.111.255	256
203.19.131.0	203.19.131.255	256
203.19.133.0	203.19.133.255	256
203.19.144.0	203.19.144.255	256
203.19.149.0	203.19.149.255	256
203.19.156.0	203.19.156.255	256
203.19.176.0	203.19.176.255	256
203.19.208.0	203.19.208.255	256
203.19.233.0	203.19.233.255	256
203.19.242.0	203.19.242.255	256
203.19.255.0	203.19.255.255	256
203.20.17.0	203.20.17.255	256
203.20.48.0	203.20.48.255	256
203.20.61.0	203.20.61.255	256
203.20.65.0	203.20.65.255	256
203.20.89.0	203.20.89.255	256
203.20.115.0	203.20.115.255	256
203.20.122.0	203.20.122.255	256
203.20.150.0	203.20.150.255	256
203.20.230.0	203.20.230.255	256
203.20.232.0	203.20.232.255	256
203.20.236.0	203.20.236.255	256
203.21.8.0	203.21.8.255	256
203.21.10.0	203.21.10.255	256
203.21.18.0	203.21.18.255	256
203.21.41.0	203.21.41.255	256
203.21.44.0	203.21.44.255	256
203.21.68.0	203.21.68.255	256
203.21.82.0	203.21.82.255	256
203.21.124.0	203.21.124.255	256
203.21.145.0	203.21.145.255	256
203.21.206.0	203.21.206.255	256
203.22.24.0	203.22.24.255	256
203.22.31.0	203.22.31.255	256
203.22.68.0	203.22.68.255	256
203.22.76.0	203.22.76.255	256
203.22.78.0	203.22.78.255	256
203.22.84.0	203.22.84.255	256
203.22.87.0	203.22.87.255	256
203.22.99.0	203.22.99.255	256
203.22.106.0	203.22.106.255	256
203.22.131.0	203.22.131.255	256
203.22.163.0	203.22.163.255	256
203.22.166.0	203.22.166.255	256
203.22.170.0	203.22.170.255	256
203.22.194.0	203.22.194.255	256
203.23.0.0	203.23.0.255	256
203.23.47.0	203.23.47.255	256
203.23.73.0	203.23.73.255	256
203.23.85.0	203.23.85.255	256
203.23.98.0	203.23.98.255	256
203.23.107.0	203.23.107.255	256
203.23.112.0	203.23.112.255	256
203.23.130.0	203.23.130.255	256
203.23.172.0	203.23.172.255	256
203.23.182.0	203.23.182.255	256
203.23.192.0	203.23.192.255	256
203.23.224.0	203.23.224.255	256
203.23.249.0	203.23.249.255	256
203.23.251.0	203.23.251.255	256
203.24.13.0	203.24.13.255	256
203.24.18.0	203.24.18.255	256
203.24.27.0	203.24.27.255	256
203.24.43.0	203.24.43.255	256
203.24.56.0	203.24.56.255	256
203.24.58.0	203.24.58.255	256
203.24.67.0	203.24.67.255	256
203.24.74.0	203.24.74.255	256
203.24.90.0	203.24.90.255	256
203.24.116.0	203.24.116.255	256
203.24.145.0	203.24.145.255	256
203.24.157.0	203.24.157.255	256
203.24.161.0	203.24.161.255	256
203.24.167.0	203.24.167.255	256
203.24.199.0	203.24.199.255	256
203.24.202.0	203.24.202.255	256
203.24.217.0	203.24.217.255	256
203.24.219.0	203.24.219.255	256
203.24.244.0	203.24.244.255	256
203.25.46.0	203.25.46.255	256
203.25.91.0	203.25.91.255	256
203.25.106.0	203.25.106.255	256
203.25.131.0	203.25.131.255	256
203.25.135.0	203.25.135.255	256
203.25.138.0	203.25.138.255	256
203.25.147.0	203.25.147.255	256
203.25.164.0	203.25.164.255	256
203.25.166.0	203.25.166.255	256
203.25.180.0	203.25.180.255	256
203.25.182.0	203.25.182.255	256
203.25.191.0	203.25.191.255	256
203.25.229.0	203.25.229.255	256
203.25.242.0	203.25.242.255	256
203.26.12.0	203.26.12.255	256
203.26.34.0	203.26.34.255	256
203.26.60.0	203.26.60.255	256
203.26.65.0	203.26.65.255	256
203.26.68.0	203.26.68.255	256
203.26.76.0	203.26.76.255	256
203.26.80.0	203.26.80.255	256
203.26.84.0	203.26.84.255	256
203.26.97.0	203.26.97.255	256
203.26.129.0	203.26.129.255	256
203.26.154.0	203.26.154.255	256
203.26.170.0	203.26.170.255	256
203.26.173.0	203.26.173.255	256
203.26.176.0	203.26.176.255	256
203.26.185.0	203.26.185.255	256
203.26.210.0	203.26.210.255	256
203.26.214.0	203.26.214.255	256
203.26.222.0	203.26.222.255	256
203.26.224.0	203.26.224.255	256
203.26.228.0	203.26.228.255	256
203.26.232.0	203.26.232.255	256
203.27.0.0	203.27.0.255	256
203.27.10.0	203.27.10.255	256
203.27.20.0	203.27.20.255	256
203.27.40.0	203.27.40.255	256
203.27.45.0	203.27.45.255	256
203.27.53.0	203.27.53.255	256
203.27.81.0	203.27.81.255	256
203.27.88.0	203.27.88.255	256
203.27.102.0	203.27.102.255	256
203.27.109.0	203.27.109.255	256
203.27.117.0	203.27.117.255	256
203.27.125.0	203.27.125.255	256
203.27.200.0	203.27.200.255	256
203.27.202.0	203.27.202.255	256
203.27.233.0	203.27.233.255	256
203.27.241.0	203.27.241.255	256
203.27.250.0	203.27.250.255	256
203.28.10.0	203.28.10.255	256
203.28.12.0	203.28.12.255	256
203.28.54.0	203.28.54.255	256
203.28.56.0	203.28.56.255	256
203.28.76.0	203.28.76.255	256
203.28.86.0	203.28.86.255	256
203.28.88.0	203.28.88.255	256
203.28.112.0	203.28.112.255	256
203.28.131.0	203.28.131.255	256
203.28.136.0	203.28.136.255	256
203.28.140.0	203.28.140.255	256
203.28.145.0	203.28.145.255	256
203.28.165.0	203.28.165.255	256
203.28.185.0	203.28.185.255	256
203.28.187.0	203.28.187.255	256
203.28.196.0	203.28.196.255	256
203.28.239.0	203.28.239.255	256
203.29.2.0	203.29.2.255	256
203.29.28.0	203.29.28.255	256
203.29.46.0	203.29.46.255	256
203.29.57.0	203.29.57.255	256
203.29.61.0	203.29.61.255	256
203.29.63.0	203.29.63.255	256
203.29.69.0	203.29.69.255	256
203.29.73.0	203.29.73.255	256
203.29.81.0	203.29.81.255	256
203.29.90.0	203.29.90.255	256
203.29.95.0	203.29.95.255	256
203.29.100.0	203.29.100.255	256
203.29.103.0	203.29.103.255	256
203.29.112.0	203.29.112.255	256
203.29.187.0	203.29.187.255	256
203.29.205.0	203.29.205.255	256
203.29.210.0	203.29.210.255	256
203.29.217.0	203.29.217.255	256
203.29.227.0	203.29.227.255	256
203.29.231.0	203.29.231.255	256
203.29.248.0	203.29.248.255	256
203.30.25.0	203.30.25.255	256
203.30.27.0	203.30.27.255	256
203.30.29.0	203.30.29.255	256
203.30.66.0	203.30.66.255	256
203.30.81.0	203.30.81.255	256
203.30.87.0	203.30.87.255	256
203.30.111.0	203.30.111.255	256
203.30.121.0	203.30.121.255	256
203.30.123.0	203.30.123.255	256
203.30.152.0	203.30.152.255	256
203.30.156.0	203.30.156.255	256
203.30.162.0	203.30.162.255	256
203.30.173.0	203.30.173.255	256
203.30.175.0	203.30.175.255	256
203.30.187.0	203.30.187.255	256
203.30.194.0	203.30.194.255	256
203.30.217.0	203.30.217.255	256
203.30.220.0	203.30.220.255	256
203.30.222.0	203.30.222.255	256
203.30.235.0	203.30.235.255	256
203.30.246.0	203.30.246.255	256
203.31.49.0	203.31.49.255	256
203.31.51.0	203.31.51.255	256
203.31.69.0	203.31.69.255	256
203.31.72.0	203.31.72.255	256
203.31.80.0	203.31.80.255	256
203.31.85.0	203.31.85.255	256
203.31.97.0	203.31.97.255	256
203.31.124.0	203.31.124.255	256
203.31.162.0	203.31.162.255	256
203.31.174.0	203.31.174.255	256
203.31.177.0	203.31.177.255	256
203.31.181.0	203.31.181.255	256
203.31.187.0	203.31.187.255	256
203.31.189.0	203.31.189.255	256
203.31.204.0	203.31.204.255	256
203.31.220.0	203.31.220.255	256
203.31.225.0	203.31.225.255	256
203.31.229.0	203.31.229.255	256
203.31.253.0	203.31.253.255	256
203.32.20.0	203.32.20.255	256
203.32.56.0	203.32.56.255	256
203.32.60.0	203.32.60.255	256
203.32.62.0	203.32.62.255	256
203.32.76.0	203.32.76.255	256
203.32.81.0	203.32.81.255	256
203.32.95.0	203.32.95.255	256
203.32.102.0	203.32.102.255	256
203.32.105.0	203.32.105.255	256
203.32.130.0	203.32.130.255	256
203.32.133.0	203.32.133.255	256
203.32.140.0	203.32.140.255	256
203.32.152.0	203.32.152.255	256
203.32.192.0	203.32.192.255	256
203.32.196.0	203.32.196.255	256
203.32.212.0	203.32.212.255	256
203.33.4.0	203.33.4.255	256
203.33.21.0	203.33.21.255	256
203.33.26.0	203.33.26.255	256
203.33.32.0	203.33.32.255	256
203.33.73.0	203.33.73.255	256
203.33.79.0	203.33.79.255	256
203.33.100.0	203.33.100.255	256
203.33.122.0	203.33.122.255	256
203.33.129.0	203.33.129.255	256
203.33.131.0	203.33.131.255	256
203.33.145.0	203.33.145.255	256
203.33.156.0	203.33.156.255	256
203.33.174.0	203.33.174.255	256
203.33.185.0	203.33.185.255	256
203.33.200.0	203.33.200.255	256
203.33.233.0	203.33.233.255	256
203.33.243.0	203.33.243.255	256
203.33.250.0	203.33.250.255	256
203.34.4.0	203.34.4.255	256
203.34.21.0	203.34.21.255	256
203.34.27.0	203.34.27.255	256
203.34.39.0	203.34.39.255	256
203.34.54.0	203.34.54.255	256
203.34.67.0	203.34.67.255	256
203.34.69.0	203.34.69.255	256
203.34.76.0	203.34.76.255	256
203.34.92.0	203.34.92.255	256
203.34.106.0	203.34.106.255	256
203.34.113.0	203.34.113.255	256
203.34.147.0	203.34.147.255	256
203.34.150.0	203.34.150.255	256
203.34.187.0	203.34.187.255	256
203.34.232.0	203.34.232.255	256
203.34.240.0	203.34.240.255	256
203.34.242.0	203.34.242.255	256
203.34.245.0	203.34.245.255	256
203.34.251.0	203.34.251.255	256
203.55.10.0	203.55.10.255	256
203.55.13.0	203.55.13.255	256
203.55.22.0	203.55.22.255	256
203.55.30.0	203.55.30.255	256
203.55.93.0	203.55.93.255	256
203.55.101.0	203.55.101.255	256
203.55.119.0	203.55.119.255	256
203.55.192.0	203.55.192.255	256
203.55.196.0	203.55.196.255	256
203.55.221.0	203.55.221.255	256
203.55.224.0	203.55.224.255	256
203.56.1.0	203.56.1.255	256
203.56.4.0	203.56.4.255	256
203.56.12.0	203.56.12.255	256
203.56.24.0	203.56.24.255	256
203.56.38.0	203.56.38.255	256
203.56.40.0	203.56.40.255	256
203.56.46.0	203.56.46.255	256
203.56.95.0	203.56.95.255	256
203.56.110.0	203.56.110.255	256
203.56.121.0	203.56.121.255	256
203.56.161.0	203.56.161.255	256
203.56.169.0	203.56.169.255	256
203.56.175.0	203.56.175.255	256
203.56.183.0	203.56.183.255	256
203.56.185.0	203.56.185.255	256
203.56.187.0	203.56.187.255	256
203.56.192.0	203.56.192.255	256
203.56.198.0	203.56.198.255	256
203.56.201.0	203.56.201.255	256
203.56.214.0	203.56.214.255	256
203.56.216.0	203.56.216.255	256
203.56.232.0	203.56.232.255	256
203.56.240.0	203.56.240.255	256
203.56.252.0	203.56.252.255	256
203.56.254.0	203.56.254.255	256
203.57.28.0	203.57.28.255	256
203.57.39.0	203.57.39.255	256
203.57.46.0	203.57.46.255	256
203.57.58.0	203.57.58.255	256
203.57.61.0	203.57.61.255	256
203.57.66.0	203.57.66.255	256
203.57.73.0	203.57.73.255	256
203.57.90.0	203.57.90.255	256
203.57.101.0	203.57.101.255	256
203.57.109.0	203.57.109.255	256
203.57.123.0	203.57.123.255	256
203.57.157.0	203.57.157.255	256
203.57.200.0	203.57.200.255	256
203.57.202.0	203.57.202.255	256
203.57.206.0	203.57.206.255	256
203.57.222.0	203.57.222.255	256
203.57.249.0	203.57.249.255	256
203.62.2.0	203.62.2.255	256
203.62.131.0	203.62.131.255	256
203.62.139.0	203.62.139.255	256
203.62.161.0	203.62.161.255	256
203.62.197.0	203.62.197.255	256
203.62.234.0	203.62.234.255	256
203.62.246.0	203.62.246.255	256
203.80.57.0	203.80.57.255	256
203.100.63.0	203.100.63.255	256
203.118.241.0	203.118.241.255	256
203.119.85.0	203.119.85.255	256
203.160.129.0	203.160.129.255	256
203.161.180.0	203.161.180.255	256
203.174.4.0	203.174.4.255	256
203.174.7.0	203.174.7.255	256
203.190.249.0	203.190.249.255	256